[
    {
        "_id": "57d078cf0d16fd4acadb1646",
        "service": "YouTubeVideo",
        "identifier": "DwHpDOWhkGk",
        "title": "Bach - Cello Suite No. 1 in G Major BWV1007 - Mov. 1-3/6",
        "length": 568,
        "requestee": "191357986814427137"
    },
    {
        "_id": "57d084890d16fd4acadb164a",
        "service": "YouTubeVideo",
        "identifier": "LiHUTGcYYFc",
        "title": "Prokofiev - Dance Of The Knights And Juliet's Dance",
        "length": 321,
        "requestee": "191357986814427137"
    },
    {
        "_id": "57d1001dba8b21f34bd4243b",
        "service": "YouTubeVideo",
        "identifier": "4Tr0otuiQuU",
        "title": "Beethoven - Moonlight Sonata (FULL)",
        "length": 901
    },
    {
        "_id": "57d10079ba8b21f34bd4243d",
        "service": "YouTubeVideo",
        "identifier": "Zi8vJ_lMxQI",
        "title": "Mozart - Requiem",
        "length": 534
    },
    {
        "_id": "57d100e7ba8b21f34bd4243e",
        "service": "YouTubeVideo",
        "identifier": "k_UOuSklNL4",
        "title": "Beethoven-Fur Elise",
        "length": 178
    },
    {
        "_id": "57d10341ba8b21f34bd42442",
        "service": "YouTubeVideo",
        "identifier": "IjpLxlSMJPo",
        "title": "Antonio Vivaldi - Spring (Full) - The Four Seasons",
        "length": 629
    },
    {
        "_id": "57d1034dba8b21f34bd42443",
        "service": "YouTubeVideo",
        "identifier": "KY1p-FmjT1M",
        "title": "Antonio Vivaldi - Summer (Full) - The Four Seasons",
        "length": 670
    },
    {
        "_id": "57d10358ba8b21f34bd42444",
        "service": "YouTubeVideo",
        "identifier": "gYyc4WXS2_Q",
        "title": "Antonio Vivaldi - Autumn (Full) - The Four Seasons",
        "length": 644
    },
    {
        "_id": "57d10360ba8b21f34bd42445",
        "service": "YouTubeVideo",
        "identifier": "TZCfydWF48c",
        "title": "Antonio Vivaldi - Winter (Full) - The Four Seasons",
        "length": 564
    },
    {
        "_id": "57d103eaba8b21f34bd42446",
        "service": "YouTubeVideo",
        "identifier": "o1FSN8_pp_o",
        "title": "W.A.Mozart Eine kleine Nachtmusik (Complete) Slovak Chamber Orchestra",
        "length": 1242
    },
    {
        "_id": "57d10432ba8b21f34bd42447",
        "service": "YouTubeVideo",
        "identifier": "9E6b3swbnWg",
        "title": "Chopin - Nocturne op.9 No.2",
        "length": 270
    },
    {
        "_id": "57d10506ba8b21f34bd42448",
        "service": "YouTubeVideo",
        "identifier": "rrVDATvUitA",
        "title": "Air - Johann Sebastian Bach",
        "length": 339
    },
    {
        "_id": "57d10536ba8b21f34bd42449",
        "service": "YouTubeVideo",
        "identifier": "KmzFDEu2RoA",
        "title": "Chopin - Spring Waltz",
        "length": 263
    },
    {
        "_id": "57d10566ba8b21f34bd4244a",
        "service": "YouTubeVideo",
        "identifier": "2bosouX_d8Y",
        "title": "Schubert - Ave Maria",
        "length": 377
    },
    {
        "_id": "57d1059fba8b21f34bd4244b",
        "service": "YouTubeVideo",
        "identifier": "QxHkLdQy5f0",
        "title": "Tchaikovsky - Waltz of the Flowers",
        "length": 451
    },
    {
        "_id": "57d105ecba8b21f34bd4244c",
        "service": "YouTubeVideo",
        "identifier": "GwDpCiKBRHQ",
        "title": "Chopin - Prelude No 4",
        "length": 151
    },
    {
        "_id": "57d106bfba8b21f34bd4244d",
        "service": "YouTubeVideo",
        "identifier": "CvFH_6DNRCY",
        "title": "CLAUDE DEBUSSY:  CLAIR DE LUNE",
        "length": 303
    },
    {
        "_id": "57d106edba8b21f34bd4244e",
        "service": "YouTubeVideo",
        "identifier": "mmCnQDUSO4I",
        "title": "Dmitri Shostakovich -  Waltz No. 2",
        "length": 231
    },
    {
        "_id": "57d16e5bba8b21f34bd42450",
        "service": "YouTubeVideo",
        "identifier": "Yq_xErF8fTE",
        "title": "Beautiful Peaceful Relaxing Piano Music \"Weeping Willow\" - (Original) Gabrielle Aapri",
        "length": 180
    },
    {
        "_id": "57d19d3e9cdb163f02739848",
        "service": "YouTubeVideo",
        "identifier": "RxabLA7UQ9k",
        "title": "Hans Zimmer - Time (Inception)",
        "length": 275,
        "requestee": "78242043209461760"
    },
    {
        "_id": "57d19d429cdb163f0273984a",
        "service": "YouTubeVideo",
        "identifier": "NlprozGcs80",
        "title": "Pachelbel - Canon In D Major. Best version.",
        "length": 376,
        "requestee": "78242043209461760"
    },
    {
        "_id": "57d19d449cdb163f0273984b",
        "service": "YouTubeVideo",
        "identifier": "-hJf4ZffkoI",
        "title": "Mozart Symphony #40 in G Minor, K 550 - 1. Molto Allegro",
        "length": 496,
        "requestee": "78242043209461760"
    },
    {
        "_id": "57d19d469cdb163f0273984d",
        "service": "YouTubeVideo",
        "identifier": "kcihcYEOeic",
        "title": "Ludovico Einaudi - Nuvole Bianche [HD]",
        "length": 372,
        "requestee": "78242043209461760"
    },
    {
        "_id": "57d19d489cdb163f0273984e",
        "service": "YouTubeVideo",
        "identifier": "nfwWKCRth_A",
        "title": "Summer 78-Yann Tiersen",
        "length": 197,
        "requestee": "78242043209461760"
    },
    {
        "_id": "57d19d499cdb163f02739850",
        "service": "YouTubeVideo",
        "identifier": "FwWL8Y-qsJg",
        "title": "Bach: Cantata, BWV 147, Jesu, Joy of Man's Desiring",
        "length": 224,
        "requestee": "78242043209461760"
    },
    {
        "_id": "57d19d4c9cdb163f02739854",
        "service": "YouTubeVideo",
        "identifier": "IVJD3dL4diY",
        "title": "Bach: Toccata and Fugue in D minor, BWV 565",
        "length": 567,
        "requestee": "78242043209461760"
    },
    {
        "_id": "57d19d4e9cdb163f02739855",
        "service": "YouTubeVideo",
        "identifier": "PLFVGwGQcB0",
        "title": "Erik Satie - Gnossienne No.1",
        "length": 205,
        "requestee": "78242043209461760"
    },
    {
        "_id": "57d2cae7be8157147d18ab9e",
        "service": "YouTubeVideo",
        "identifier": "XZTeavJ9frA",
        "title": "Dvorak - Romance for piano and violin, Op.11",
        "length": 767
    },
    {
        "_id": "57d2cbf1be8157147d18aba1",
        "service": "YouTubeVideo",
        "identifier": "QoZw46sKaxw",
        "title": "Mozart: Piano Concerto #20 In D Minor, K 466 - 2. Romance",
        "length": 528
    },
    {
        "_id": "57d2cc457e516b7fb379720b",
        "service": "YouTubeVideo",
        "identifier": "vCHREyE5GzQ",
        "title": "Beethoven - Symphony No.7 in A major op.92 - II, Allegretto",
        "length": 527,
        "requestee": "191357986814427137"
    },
    {
        "_id": "57d2cd9dbe8157147d18aba3",
        "service": "YouTubeVideo",
        "identifier": "E9DCwgLRBFs",
        "title": "Luigi Boccherini - Minuetto - Minuet",
        "length": 215
    },
    {
        "_id": "57d2cdc17e516b7fb379720c",
        "service": "YouTubeVideo",
        "identifier": "se_Swf7-68M",
        "title": "Mozart - Rondo Alla Turca (Orchestra)",
        "length": 184,
        "requestee": "191357986814427137"
    },
    {
        "_id": "57d2ced7be8157147d18aba4",
        "service": "YouTubeVideo",
        "identifier": "xlMhLjyWvYA",
        "title": "Bach►►►Orchestral Suite No. 3 in D Major",
        "length": 433
    },
    {
        "_id": "57d2cf11be8157147d18aba5",
        "service": "YouTubeVideo",
        "identifier": "XMbvcp480Y4",
        "title": "Adagio in G Minor (Albinoni)",
        "length": 537
    },
    {
        "_id": "57d2cf5abe8157147d18aba6",
        "service": "YouTubeVideo",
        "identifier": "JSAd3NpDi6Q",
        "title": "Handel - Sarabande",
        "length": 221
    },
    {
        "_id": "57d2d07cbe8157147d18aba8",
        "service": "YouTubeVideo",
        "identifier": "YyknBTm_YyM",
        "title": "Camille Saint-Saëns - Danse Macabre",
        "length": 430
    },
    {
        "_id": "57d2d0cbbe8157147d18aba9",
        "service": "YouTubeVideo",
        "identifier": "DUmq1cpcglQ",
        "title": "Prokofiev - Dance of the Knights",
        "length": 347
    },
    {
        "_id": "57d2d1e2be8157147d18abab",
        "service": "YouTubeVideo",
        "identifier": "GHnzos40dxY",
        "title": "Franz Liszt - Liebestraum \"Love Dream\"",
        "length": 255
    },
    {
        "_id": "57d2d20bbe8157147d18abad",
        "service": "YouTubeVideo",
        "identifier": "rUuusqy50yk",
        "title": "Tchaikovsky - Valse Sentimentale",
        "length": 286
    },
    {
        "_id": "57d2d238be8157147d18abaf",
        "service": "YouTubeVideo",
        "identifier": "df-eLzao63I",
        "title": "Wolfgang Amadeus Mozart - Piano Concerto No. 21 - Andante",
        "length": 352
    },
    {
        "_id": "57d2d267be8157147d18abb0",
        "service": "YouTubeVideo",
        "identifier": "3X9LvC9WkkQ",
        "title": "Johannes Brahms - Hungarian Dance No. 5",
        "length": 202
    },
    {
        "_id": "57d2d289be8157147d18abb1",
        "service": "YouTubeVideo",
        "identifier": "8OZCyp-LcGw",
        "title": "Mozart-The Marriage of Figaro",
        "length": 291
    },
    {
        "_id": "57d2d31ebe8157147d18abb2",
        "service": "YouTubeVideo",
        "identifier": "4Diu2N8TGKA",
        "title": "Offenbach - Can Can Music",
        "length": 132
    },
    {
        "_id": "57d2d3b5be8157147d18abb3",
        "service": "YouTubeVideo",
        "identifier": "gPybrOxRoT4",
        "title": "Johann Strauss II - Die Fledermaus Overture",
        "length": 511
    },
    {
        "_id": "57d2d406be8157147d18abb4",
        "service": "YouTubeVideo",
        "identifier": "_CTYymbbEL4",
        "title": "Johann Strauss II - The Blue Danube Waltz",
        "length": 660
    },
    {
        "_id": "57d2d444be8157147d18abb5",
        "service": "YouTubeVideo",
        "identifier": "Fo0K_n3VLG4",
        "title": "Bach - Double Violin Concerto in D minor 2nd movement, Largo",
        "length": 448
    },
    {
        "_id": "57d2d4f5be8157147d18abb7",
        "service": "YouTubeVideo",
        "identifier": "caVr-VdeDvw",
        "title": "Mozart 's Greatest Violin Piece",
        "length": 602
    },
    {
        "_id": "57d2d5a5be8157147d18abb8",
        "service": "YouTubeVideo",
        "identifier": "2nvtnmpvp48",
        "title": "Kreisler - Liebeslied",
        "length": 233
    },
    {
        "_id": "57d2d65abe8157147d18abb9",
        "service": "YouTubeVideo",
        "identifier": "NWrs5sGun-Y",
        "title": "Elgar - Salut D'Amour ( Love Greeting )",
        "length": 192
    },
    {
        "_id": "57d2e634be8157147d18abcb",
        "service": "YouTubeVideo",
        "identifier": "SRmCEGHt-Qk",
        "title": "Wagner ~ Tannhäuser Overture",
        "length": 937
    },
    {
        "_id": "57d2e63abe8157147d18abcc",
        "service": "YouTubeVideo",
        "identifier": "kdtLuyWuPDs",
        "title": "Bedřich Smetana: Má Vlast Moldau (Vltava) [City of Prague Philharmonic Orchestra]",
        "length": 635
    },
    {
        "_id": "57d2e63fbe8157147d18abcd",
        "service": "YouTubeVideo",
        "identifier": "mf711o8jAQA",
        "title": "Mozart - Piano Concerto No.23 In A Major, K 488 Adagio",
        "length": 377
    },
    {
        "_id": "57d2e644be8157147d18abce",
        "service": "YouTubeVideo",
        "identifier": "TJ6Mzvh3XCc",
        "title": "Arvo Pärt- Spiegel im Spiegel",
        "length": 611
    },
    {
        "_id": "57d2e649be8157147d18abcf",
        "service": "YouTubeVideo",
        "identifier": "Z_hOR50u7ek",
        "title": "Prokofiev: Romeo and Juliet, No 13 Dance of the Knights (Valery Gergiev, LSO)",
        "length": 329
    },
    {
        "_id": "57d2e64fbe8157147d18abd0",
        "service": "YouTubeVideo",
        "identifier": "ZR2JlDnT2l8",
        "title": "Vaughan Williams ~ The Lark Ascending",
        "length": 895
    },
    {
        "_id": "57d2e654be8157147d18abd1",
        "service": "YouTubeVideo",
        "identifier": "N7XH-58eB8c",
        "title": "Andreas Scholl: Largo di Handel : Ombra mai fu : Aria da Xerxes HWV 40 - Bonazeta YT",
        "length": 192
    },
    {
        "_id": "57d2e659be8157147d18abd2",
        "service": "YouTubeVideo",
        "identifier": "dK1_vm0FMAU",
        "title": "S. Ramey & K. Moll \"The Commendatore Scene\" Don Giovanni",
        "length": 443
    },
    {
        "_id": "57d2e65ebe8157147d18abd3",
        "service": "YouTubeVideo",
        "identifier": "Xq2WTXtKurk",
        "title": "Johann Sebastian Bach - Brandenburg Concerto No. 3 (Allegro-Adagio)",
        "length": 413
    },
    {
        "_id": "57d2e664be8157147d18abd4",
        "service": "YouTubeVideo",
        "identifier": "PaMkj4_H8WM",
        "title": "For the Beauty of the Earth - John Rutter",
        "length": 219
    },
    {
        "_id": "57d2e66ebe8157147d18abd6",
        "service": "YouTubeVideo",
        "identifier": "r30D3SW4OVw",
        "title": "Bolero - Maurice Ravel",
        "length": 890
    },
    {
        "_id": "57d2e674be8157147d18abd7",
        "service": "YouTubeVideo",
        "identifier": "Ce8p0VcTbuA",
        "title": "Krystian Zimerman - Chopin - Ballade No. 1 in G minor, Op. 23",
        "length": 552
    },
    {
        "_id": "57d2e679be8157147d18abd9",
        "service": "YouTubeVideo",
        "identifier": "PeLuQ6X2ixI",
        "title": "Aphex Twin - Avril 14th (Extended)",
        "length": 220
    },
    {
        "_id": "57d2e67ebe8157147d18abda",
        "service": "YouTubeVideo",
        "identifier": "KU1X3Wut-k0",
        "title": "George Gershwin - \"An American in Paris\"",
        "length": 1097
    },
    {
        "_id": "57d2e689be8157147d18abde",
        "service": "YouTubeVideo",
        "identifier": "I2GKgFZ_ioQ",
        "title": "S. Rachmaninov : Prelude op. 23 no. 5 in G minor (Berezovsky)",
        "length": 253
    },
    {
        "_id": "57d2e68fbe8157147d18abdf",
        "service": "YouTubeVideo",
        "identifier": "PXMVkQ70I88",
        "title": "Tzvi Erez plays Bach: Prelude 1 in C Major BWV 846 from the Well-Tempered Clavier",
        "length": 135
    },
    {
        "_id": "57d2e695be8157147d18abe1",
        "service": "YouTubeVideo",
        "identifier": "SMKYbSCXh8c",
        "title": "John Rutter Candlelight Carol",
        "length": 269
    },
    {
        "_id": "57d2e69fbe8157147d18abe4",
        "service": "YouTubeVideo",
        "identifier": "IA88AS6Wy_4",
        "title": "Gregorio Allegri: Miserere",
        "length": 763
    },
    {
        "_id": "57d2e6aabe8157147d18abe7",
        "service": "YouTubeVideo",
        "identifier": "jfz-XDWPt-M",
        "title": "Ludovico Einaudi - Run",
        "length": 339
    },
    {
        "_id": "57d2e6b4be8157147d18abea",
        "service": "YouTubeVideo",
        "identifier": "MiXgOQ9_-RI",
        "title": "Zadok the Priest — Choir of Westminster Abbey",
        "length": 328
    },
    {
        "_id": "57d2e6babe8157147d18abeb",
        "service": "YouTubeVideo",
        "identifier": "UCVnFUUI6X4",
        "title": "Simple Song #3 Youth La giovinezza",
        "length": 389
    },
    {
        "_id": "57d2e6c5be8157147d18abed",
        "service": "YouTubeVideo",
        "identifier": "2x-OHljZzHQ",
        "title": "Johann Sebastian BACH: Adagio, BWV 974",
        "length": 264
    },
    {
        "_id": "57d2e6cbbe8157147d18abee",
        "service": "YouTubeVideo",
        "identifier": "Pf1ONrOyees",
        "title": "Roberto Cacciapaglia - Atlantico",
        "length": 199
    },
    {
        "_id": "57d2e6d6be8157147d18abf0",
        "service": "YouTubeVideo",
        "identifier": "LjgndGuy77o",
        "title": "Albinoni - Oboe Concerto #2 in D Minor Op. 9",
        "length": 632
    },
    {
        "_id": "57d2e6dbbe8157147d18abf1",
        "service": "YouTubeVideo",
        "identifier": "0U6sWqfrnTs",
        "title": "Ralph Vaughan Williams - Fantasia on a Theme by Thomas Tallis",
        "length": 977
    },
    {
        "_id": "57d2e6e6be8157147d18abf3",
        "service": "YouTubeVideo",
        "identifier": "s8De5eg1kic",
        "title": "Chilly Gonzales - White Keys (from SOLO PIANO II)",
        "length": 140
    },
    {
        "_id": "57d2e6ebbe8157147d18abf4",
        "service": "YouTubeVideo",
        "identifier": "Ts7FQaVULRs",
        "title": "Where Is My Mind- Maxence Cyrin",
        "length": 166
    },
    {
        "_id": "57d2e6f0be8157147d18abf6",
        "service": "YouTubeVideo",
        "identifier": "QLj_gMBqHX8",
        "title": "Bach: Brandenburg Concerto No. 3 in G major, BWV 1048 (Freiburger Barockorchester)",
        "length": 636
    },
    {
        "_id": "57d2e6fce58ef5563290e44b",
        "service": "YouTubeVideo",
        "identifier": "VbxgYlcNxE8",
        "title": "Tchaikovsky - 1812 Overture (Full with Cannons)",
        "length": 909,
        "requestee": "108633439984439296"
    },
    {
        "_id": "57d2e700be8157147d18abf9",
        "service": "YouTubeVideo",
        "identifier": "SUDvZaMl4RU",
        "title": "Mendelssohn A Midsummer Night's Dream Overture Op.21 by Masur, LGO (1997)",
        "length": 767
    },
    {
        "_id": "57d2e706be8157147d18abfa",
        "service": "YouTubeVideo",
        "identifier": "zuHQgmoSKGs",
        "title": "Johann Sebastian Bach - Cello suite No.1 Prelude in G - Major",
        "length": 159
    },
    {
        "_id": "57d2e70bbe8157147d18abfb",
        "service": "YouTubeVideo",
        "identifier": "swAicg0GjNg",
        "title": "Clint Mansell - Together We Will Live Forever",
        "length": 302
    },
    {
        "_id": "57d2e710be8157147d18abfd",
        "service": "YouTubeVideo",
        "identifier": "8yjnLmv1hHU",
        "title": "Lang Lang plays Chopin Etude Op.10 No.3 in E Major at The Berlin Philharmonic.",
        "length": 339
    },
    {
        "_id": "57d2e714e58ef5563290e44c",
        "service": "YouTubeVideo",
        "identifier": "5poSw7tFLB4",
        "title": "Tchaikovsky - Marche Slave",
        "length": 566,
        "requestee": "108633439984439296"
    },
    {
        "_id": "57d2e715be8157147d18abfe",
        "service": "YouTubeVideo",
        "identifier": "Rjzf_cWzlp8",
        "title": "Out of Africa & Wolfgang Amadeus Mozart - Clarinet concerto in A major, K. 622 - Adagio (HD)",
        "length": 436
    },
    {
        "_id": "57d2e720be8157147d18ac00",
        "service": "YouTubeVideo",
        "identifier": "0mYUMctFm60",
        "title": "Mozart Serenade No 10 In B Flat Major K 361 III Adagio",
        "length": 347
    },
    {
        "_id": "57d2e725be8157147d18ac01",
        "service": "YouTubeVideo",
        "identifier": "LvOoQ0Ff2nA",
        "title": "Goldmund - Threnody",
        "length": 287
    },
    {
        "_id": "57d2e730be8157147d18ac03",
        "service": "YouTubeVideo",
        "identifier": "hKgcHjq1xKQ",
        "title": "Pogorelich plays Ravel: Gaspard de la nuit (Ondine - Le Gibet - Scarbo)",
        "length": 1436
    },
    {
        "_id": "57d2e73abe8157147d18ac06",
        "service": "YouTubeVideo",
        "identifier": "ScUP6MKmXpg",
        "title": "Nils Frahm - Re (Official Music Video)",
        "length": 239
    },
    {
        "_id": "57d2e740be8157147d18ac07",
        "service": "YouTubeVideo",
        "identifier": "deNZCpBLrEk",
        "title": "Mozart Fantasy in D Minor by Tzvi Erez K.397",
        "length": 325
    },
    {
        "_id": "57d2e74abe8157147d18ac09",
        "service": "YouTubeVideo",
        "identifier": "33fT9K8dRkA",
        "title": "Etude in E minor, Op. 25, No. 5 ''Wrong Note'' - Chopin (Shigatsu Wa Kimi No Uso)+Sheet",
        "length": 201
    },
    {
        "_id": "57d2e755be8157147d18ac0b",
        "service": "YouTubeVideo",
        "identifier": "mWF-48jIrSU",
        "title": "Joseph Haydn Piano Sonata nº 59 in E flat, Hob. XVI:49",
        "length": 1297
    },
    {
        "_id": "57d2e75abe8157147d18ac0c",
        "service": "YouTubeVideo",
        "identifier": "6_UPjZyxn0Q",
        "title": "Lacrimosa (Requiem) - Wolfgang Amadeus Mozart (lyrics)",
        "length": 187
    },
    {
        "_id": "57d2e75fbe8157147d18ac0d",
        "service": "YouTubeVideo",
        "identifier": "pe-GrRQz8pk",
        "title": "Krystian Zimerman - Chopin - Ballade No. 4 in F minor, Op. 52",
        "length": 683
    },
    {
        "_id": "57d2e764be8157147d18ac0e",
        "service": "YouTubeVideo",
        "identifier": "o7De42gw0jc",
        "title": "Rachel Portman - Main Titles",
        "length": 191
    },
    {
        "_id": "57d2e76abe8157147d18ac0f",
        "service": "YouTubeVideo",
        "identifier": "3HSRIDtwsfM",
        "title": "Bach: Brandenburg Concerto No. 2 in F major, BWV 1047 (Freiburger Barockorchester)",
        "length": 694
    },
    {
        "_id": "57d2e76fbe8157147d18ac10",
        "service": "YouTubeVideo",
        "identifier": "gbncXDimwbQ",
        "title": "Leoš Janáček - Sinfonietta (1926)",
        "length": 1459
    },
    {
        "_id": "57d2e775be8157147d18ac12",
        "service": "YouTubeVideo",
        "identifier": "R7pJFG-fRWk",
        "title": "Christmas Lullaby John Rutter amp Cambridge Singers",
        "length": 262
    },
    {
        "_id": "57d2e77abe8157147d18ac13",
        "service": "YouTubeVideo",
        "identifier": "YmWH1hL5cd8",
        "title": "【MV】Akira Kosemura - Light Dance",
        "length": 266
    },
    {
        "_id": "57d2e77fbe8157147d18ac14",
        "service": "YouTubeVideo",
        "identifier": "vJpAIOFN5WQ",
        "title": "Arthur Rubinstein - Chopin Nocturne Op. 72, No. 1 in E minor",
        "length": 284
    },
    {
        "_id": "57d2e784be8157147d18ac16",
        "service": "YouTubeVideo",
        "identifier": "3o8uUP0lS9c",
        "title": "Debussy - \"La Mer\": \"Play of the Waves\"",
        "length": 391
    },
    {
        "_id": "57d2e789be8157147d18ac17",
        "service": "YouTubeVideo",
        "identifier": "FwsIo83RWEQ",
        "title": "John Rutter: What sweeter music.MP4",
        "length": 267
    },
    {
        "_id": "57d2e794be8157147d18ac1a",
        "service": "YouTubeVideo",
        "identifier": "GNLtvAcQMIk",
        "title": "SAMUEL BARBER - Adagio for Strings, Op. 11",
        "length": 606
    },
    {
        "_id": "57d2e799be8157147d18ac1b",
        "service": "YouTubeVideo",
        "identifier": "NLR3lSrqlww",
        "title": "Maria Callas - Vissi d'arte (Puccini, Tosca)",
        "length": 201
    },
    {
        "_id": "57d2e79fbe8157147d18ac1c",
        "service": "YouTubeVideo",
        "identifier": "aNIs139af-4",
        "title": "Chopin- Waltz no. 7 in C sharp minor, Op. 64 no. 2",
        "length": 209
    },
    {
        "_id": "57d2e7afbe8157147d18ac20",
        "service": "YouTubeVideo",
        "identifier": "dXTLomOF_R4",
        "title": "Yiruma - River Flows In You (HD) (HQ)",
        "length": 190
    },
    {
        "_id": "57d2e7b4be8157147d18ac21",
        "service": "YouTubeVideo",
        "identifier": "4r_DvtPXgOY",
        "title": "Philip Glass - Opening (1982)",
        "length": 386
    },
    {
        "_id": "57d2e7bebe8157147d18ac23",
        "service": "YouTubeVideo",
        "identifier": "e48viAGu9TY",
        "title": "Maria Callas -Verdi- La traviata -Libiamo ne` lieti calici",
        "length": 196
    },
    {
        "_id": "57d2e7c4be8157147d18ac24",
        "service": "YouTubeVideo",
        "identifier": "27n4rQ-VIT8",
        "title": "Heifetz-Mendelssohn Violin Concerto E Minor (Op. 64)-Part 1",
        "length": 333
    },
    {
        "_id": "57d2e7c9be8157147d18ac25",
        "service": "YouTubeVideo",
        "identifier": "TkgatM3-t4k",
        "title": "Puccini - Madama Butterfly: Un bel dì vedremo - Maria Callas 1954",
        "length": 283
    },
    {
        "_id": "57d2e7d3be8157147d18ac29",
        "service": "YouTubeVideo",
        "identifier": "NBQV4F8IAs4",
        "title": "Rutter - A gaelic blessing - The Cambridge Singers",
        "length": 116
    },
    {
        "_id": "57d2e7e3be8157147d18ac2d",
        "service": "YouTubeVideo",
        "identifier": "zysmTUKMbUI",
        "title": "Max Richter - Vladimir's Blues",
        "length": 85
    },
    {
        "_id": "57d2e7e8be8157147d18ac2e",
        "service": "YouTubeVideo",
        "identifier": "FcTyIaYLQqo",
        "title": "Crossing the Bar",
        "length": 175
    },
    {
        "_id": "57d2e877e58ef5563290e44d",
        "service": "YouTubeVideo",
        "identifier": "L0bcRCCg01I",
        "title": "Gustav Holst - The Planets - Mars, the Bringer of War",
        "length": 447,
        "requestee": "108633439984439296"
    },
    {
        "_id": "57d2e879e58ef5563290e44e",
        "service": "YouTubeVideo",
        "identifier": "Nz0b4STz1lo",
        "title": "Gustav Holst - The Planets - Jupiter, the Bringer of Jollity",
        "length": 456,
        "requestee": "108633439984439296"
    },
    {
        "_id": "57d2e8a7e58ef5563290e44f",
        "service": "YouTubeVideo",
        "identifier": "4ls9Jk937P8",
        "title": "Bach Harpsichord Concerto D minor BWV 1052 Jordi Savall",
        "length": 1289,
        "requestee": "174931392151420935"
    },
    {
        "_id": "57d2e8ace58ef5563290e450",
        "service": "YouTubeVideo",
        "identifier": "5ZL5t3_z6uw",
        "title": "J.S. Bach Harpsichord Concerto in F minor BWV 1056, Christophe Rousset",
        "length": 558,
        "requestee": "174931392151420935"
    },
    {
        "_id": "57d2e8b8e58ef5563290e451",
        "service": "YouTubeVideo",
        "identifier": "iCEDfZgDPS8",
        "title": "Mussorgsky - Night On Bald Mountain",
        "length": 581,
        "requestee": "108633439984439296"
    },
    {
        "_id": "57d2e8e3e58ef5563290e452",
        "service": "YouTubeVideo",
        "identifier": "ikBD3DcSGFM",
        "title": "Tristesse - Chopin",
        "length": 263,
        "requestee": "108633439984439296"
    },
    {
        "_id": "57d2e8e8e58ef5563290e453",
        "service": "YouTubeVideo",
        "identifier": "28sdV_DXSrU",
        "title": "Marcha fúnebre - Chopin",
        "length": 559,
        "requestee": "181229840098263041"
    },
    {
        "_id": "57d2eb3cfd654e340991df0d",
        "service": "YouTubeVideo",
        "identifier": "XeT17YeUj5k",
        "title": "Beethoven's 9th Symphony. 4th movement",
        "length": 1407
    },
    {
        "_id": "57d2eb47fd654e340991df0e",
        "service": "YouTubeVideo",
        "identifier": "etBs4o6MAvI",
        "title": "Ludwig van Beethoven - Symphony No. 9 - First movement - Allegro ma non troppo, un poco maestoso",
        "length": 962
    },
    {
        "_id": "57d2eb5dfd654e340991df10",
        "service": "YouTubeVideo",
        "identifier": "gER0k0s04Ps",
        "title": "Beethoven Symphony No.9  3rd movement.wmv",
        "length": 847
    },
    {
        "_id": "57d2ecd2e58ef5563290e455",
        "service": "YouTubeVideo",
        "identifier": "_P65WNm48p0",
        "title": "Tchaikovsky - Lake in the Moonlight",
        "length": 157,
        "requestee": "108633439984439296"
    },
    {
        "_id": "57d2ecdde58ef5563290e456",
        "service": "YouTubeVideo",
        "identifier": "CShopT9QUzw",
        "title": "Swan Lake Waltz - Tchaikovsky",
        "length": 441,
        "requestee": "181229840098263041"
    },
    {
        "_id": "57d2ecdee58ef5563290e457",
        "service": "YouTubeVideo",
        "identifier": "dbbtmskCRUY",
        "title": "Rachmaninov: The Isle of the Dead, Symphonic poem Op. 29 - Andrew Davis",
        "length": 1300,
        "requestee": "181229840098263041"
    },
    {
        "_id": "57d2ece3e58ef5563290e458",
        "service": "YouTubeVideo",
        "identifier": "2Sb8WCPjPDs",
        "title": "Tchaikovsky - Sleeping Beauty Waltz",
        "length": 266,
        "requestee": "181229840098263041"
    },
    {
        "_id": "57d2ede9e58ef5563290e45a",
        "service": "YouTubeVideo",
        "identifier": "z7rxl5KsPjs",
        "title": "Tartini Violin Sonata in G minor ''Devil's Trill Sonata''",
        "length": 991,
        "requestee": "181229840098263041"
    },
    {
        "_id": "57d2edf3e58ef5563290e45b",
        "service": "YouTubeVideo",
        "identifier": "VMw0EjLFPXw",
        "title": "Wagner ~ Faust",
        "length": 736,
        "requestee": "181229840098263041"
    },
    {
        "_id": "57d2edfee58ef5563290e45e",
        "service": "YouTubeVideo",
        "identifier": "7AlEvy0fJto",
        "title": "Richard Wagner - The ride of the Valkyries from \"Die Walküre\"",
        "length": 291,
        "requestee": "181229840098263041"
    },
    {
        "_id": "57d2ee29e58ef5563290e460",
        "service": "YouTubeVideo",
        "identifier": "rrk-zuuc77U",
        "title": "Mozart - Turkish March - Marcha Turca",
        "length": 227,
        "requestee": "181229840098263041"
    },
    {
        "_id": "57d2ee2be58ef5563290e461",
        "service": "YouTubeVideo",
        "identifier": "FVTXlRxVdEY",
        "title": "A Little Night Music - Wolfgang Amadeus Mozart",
        "length": 351,
        "requestee": "181229840098263041"
    },
    {
        "_id": "57d2ee2ce58ef5563290e462",
        "service": "YouTubeVideo",
        "identifier": "YOV7yWEv54o",
        "title": "Prokofiev - Cinderella Suite - Cinderella's Waltz",
        "length": 171,
        "requestee": "181229840098263041"
    },
    {
        "_id": "57d2ee36e58ef5563290e464",
        "service": "YouTubeVideo",
        "identifier": "vx1Qj8_1M2A",
        "title": "Narimi Arimori 有森也実 - PhotoBook Slideshow",
        "length": 257,
        "requestee": "108633439984439296"
    },
    {
        "_id": "57d2ee38e58ef5563290e465",
        "service": "YouTubeVideo",
        "identifier": "OloXRhesab0",
        "title": "Gioachino Rossini : The Barber Of Seville - Overture",
        "length": 468,
        "requestee": "181229840098263041"
    },
    {
        "_id": "57d2ee39e58ef5563290e466",
        "service": "YouTubeVideo",
        "identifier": "cbw4z0oc57c",
        "title": "BEETHOVEN  Missa Solemnis in D Major Op 123 (Sanctus) SIR COLIN DAVIS",
        "length": 1058,
        "requestee": "108633439984439296"
    },
    {
        "_id": "57d2ee3ae58ef5563290e467",
        "service": "YouTubeVideo",
        "identifier": "usfiAsWR4qU",
        "title": "Händel Messiah - Hallelujah Chorus",
        "length": 242,
        "requestee": "108633439984439296"
    },
    {
        "_id": "57d2ee3be58ef5563290e468",
        "service": "YouTubeVideo",
        "identifier": "KpOtuoHL45Y",
        "title": "Franz Liszt - Liebestraum - Love Dream",
        "length": 351,
        "requestee": "108633439984439296"
    },
    {
        "_id": "57d2ee3ce58ef5563290e469",
        "service": "YouTubeVideo",
        "identifier": "7P5NmB_z1D4",
        "title": "Luigi Cherubini - Anacréon - Ouverture",
        "length": 666,
        "requestee": "108633439984439296"
    },
    {
        "_id": "57d2ee3de58ef5563290e46a",
        "service": "YouTubeVideo",
        "identifier": "Il7cSq3mKbQ",
        "title": "Handel: Concerto grosso in C, HWV 318 \"Alexander's Feast\" - 4. Andante non presto",
        "length": 440,
        "requestee": "108633439984439296"
    },
    {
        "_id": "57d2ee3ee58ef5563290e46b",
        "service": "YouTubeVideo",
        "identifier": "KJbg9V2KnD8",
        "title": "Liszt - Mephisto Waltz No. 1, S. 514 [André Laplante]",
        "length": 701,
        "requestee": "108633439984439296"
    },
    {
        "_id": "57d2ee40e58ef5563290e46d",
        "service": "YouTubeVideo",
        "identifier": "oxtO9CzF7-o",
        "title": "Corelli - Concerti Grossi, Op.6 (1714) / Concerto Grosso No. 1 in D major (Nicholas McGegan)",
        "length": 661,
        "requestee": "77511942717046784"
    },
    {
        "_id": "57d2ef58e58ef5563290e46f",
        "service": "YouTubeVideo",
        "identifier": "prvBEXbnDR0",
        "title": "Mozart Symphony 41 C Major -- KV 551 -- 4th Movement Molto Allegro",
        "length": 691,
        "requestee": "77511942717046784"
    },
    {
        "_id": "57d2ef5ae58ef5563290e470",
        "service": "YouTubeVideo",
        "identifier": "SIQW-Askot8",
        "title": "Mozart Symphony 35 D Major -- KV 385 -- 4th Movement Finale Presto",
        "length": 246,
        "requestee": "77511942717046784"
    },
    {
        "_id": "57d2ef5be58ef5563290e471",
        "service": "YouTubeVideo",
        "identifier": "NfpF3HPMXJ8",
        "title": "Zelenka - Requiem in C Minor ZWV45 - Mov. 1-3/18",
        "length": 410,
        "requestee": "77511942717046784"
    },
    {
        "_id": "57d31153e58ef5563290e474",
        "service": "YouTubeVideo",
        "identifier": "tvwx7IeZky8",
        "title": "Maurice Ravel - Rapsodie Espagnole",
        "length": 939,
        "requestee": "77511942717046784"
    },
    {
        "_id": "57d31160e58ef5563290e475",
        "service": "YouTubeVideo",
        "identifier": "tYgO6Plp7Dk",
        "title": "Franz Liszt - Mephisto Waltz",
        "length": 652,
        "requestee": "77511942717046784"
    },
    {
        "_id": "57d31166e58ef5563290e476",
        "service": "YouTubeVideo",
        "identifier": "lplK_ubt64I",
        "title": "Saint-Saëns - Violin Concerto No.1 in A major, Op.20",
        "length": 708,
        "requestee": "77511942717046784"
    },
    {
        "_id": "57d31182e58ef5563290e477",
        "service": "YouTubeVideo",
        "identifier": "j4CX4qxnA98",
        "title": "Rimsky-Korsakov - Russian Easter Festival Overture, Op.36",
        "length": 862,
        "requestee": "77511942717046784"
    },
    {
        "_id": "57d311dfe58ef5563290e478",
        "service": "YouTubeVideo",
        "identifier": "0KPDp6boFkU",
        "title": "Tchaikovsky - Fatum - Symphonic Poem, Op.77",
        "length": 960,
        "requestee": "77511942717046784"
    },
    {
        "_id": "57d311ece58ef5563290e479",
        "service": "YouTubeVideo",
        "identifier": "XeztLHt_ZNs",
        "title": "Dimitri Shostakovich - Tahiti Trot (Tea for Two)",
        "length": 218,
        "requestee": "77511942717046784"
    },
    {
        "_id": "57d311f1e58ef5563290e47a",
        "service": "YouTubeVideo",
        "identifier": "Hd7W4BsOjpE",
        "title": "Grieg - Procession of the Dwarfs, Lyric suite Op. 54",
        "length": 253,
        "requestee": "77511942717046784"
    },
    {
        "_id": "57d311f6e58ef5563290e47b",
        "service": "YouTubeVideo",
        "identifier": "PCXg8xo31h0",
        "title": "Haydn - String Quartet in D Minor \"Fifths\" - Mov. 1/4",
        "length": 585,
        "requestee": "77511942717046784"
    },
    {
        "_id": "57d4a935a0aa7c2a8fba6b79",
        "service": "YouTubeVideo",
        "identifier": "q9umBE2Gn7Q",
        "title": "Arthur Rubinstein - Chopin Barcarolle, Op 60",
        "length": 572,
        "requestee": "107223670723731456"
    },
    {
        "_id": "57d4a93fa0aa7c2a8fba6b7a",
        "service": "YouTubeVideo",
        "identifier": "uAAsth8eLps",
        "title": "Beethoven: Piano Sonata no 8 'Pathetique' 2nd movt.",
        "length": 329,
        "requestee": "196429990982713344"
    },
    {
        "_id": "57d4a957a0aa7c2a8fba6b7b",
        "service": "YouTubeVideo",
        "identifier": "-rh8gMvzPw0",
        "title": "Edvard Grieg: \"Peer Gynt - Morning Mood\"",
        "length": 371,
        "requestee": "222906031758376961"
    },
    {
        "_id": "57d4a962a0aa7c2a8fba6b7c",
        "service": "YouTubeVideo",
        "identifier": "M8J8urC_8Jw",
        "title": "Tchaikovsky - The Nutcracker Suite, Op 71a",
        "length": 1295,
        "requestee": "222906031758376961"
    },
    {
        "_id": "57d4a965a0aa7c2a8fba6b7d",
        "service": "YouTubeVideo",
        "identifier": "CSav51fVlKU",
        "title": "Chariots of Fire Theme • Vangelis",
        "length": 201,
        "requestee": "222906031758376961"
    },
    {
        "_id": "57d4a968a0aa7c2a8fba6b7e",
        "service": "YouTubeVideo",
        "identifier": "Kc9sc542mdk",
        "title": "Pollini plays Chopin Sonata No.2 in B flat Minor, Op.35 - 1. Grave - Doppio movimento",
        "length": 438,
        "requestee": "162646081379893248"
    },
    {
        "_id": "57d4a96aa0aa7c2a8fba6b7f",
        "service": "YouTubeVideo",
        "identifier": "obPucSY6sig",
        "title": "N. Rimsky-Korsakov. Scheherazade. Movement 1",
        "length": 632,
        "requestee": "107223670723731456"
    },
    {
        "_id": "57d4a980a0aa7c2a8fba6b80",
        "service": "YouTubeVideo",
        "identifier": "h_vZtpjNKVE",
        "title": "Arthur Rubinstein - Chopin Nocturne Op. 48, No. 1 in C minor",
        "length": 357,
        "requestee": "107223670723731456"
    },
    {
        "_id": "57d4a988a0aa7c2a8fba6b82",
        "service": "YouTubeVideo",
        "identifier": "Yh36PaE-Pf0",
        "title": "Debussy - Arabesque No. 1 (Ciccolini)",
        "length": 265,
        "requestee": "107223670723731456"
    },
    {
        "_id": "57d4a98aa0aa7c2a8fba6b83",
        "service": "YouTubeVideo",
        "identifier": "fqpe-oj60Io",
        "title": "Richter plays Scriabin: Sonata no. 2, Op 19 (movement 2)",
        "length": 212,
        "requestee": "107223670723731456"
    },
    {
        "_id": "57d4a98ba0aa7c2a8fba6b84",
        "service": "YouTubeVideo",
        "identifier": "QZ2LIOYXmRY",
        "title": "Richter plays Scriabin: Sonata no. 2, Op 19 (movement 1)",
        "length": 451,
        "requestee": "107223670723731456"
    },
    {
        "_id": "57d4a98ea0aa7c2a8fba6b86",
        "service": "YouTubeVideo",
        "identifier": "R-rtqkd-5Og",
        "title": "Jan Lisiecki - Chopin Étude No.4 in C sharp Minor, Op.10  (Official Video)",
        "length": 142,
        "requestee": "217456376123883520"
    },
    {
        "_id": "57d4a9c9a0aa7c2a8fba6b87",
        "service": "YouTubeVideo",
        "identifier": "2aKxf1h5r4g",
        "title": "Grieg ~ Peer Gynt - Death of Ase",
        "length": 360,
        "requestee": "222906031758376961"
    },
    {
        "_id": "57d4ab7d3d83579e1a728e92",
        "service": "YouTubeVideo",
        "identifier": "ascdQJ6HGpc",
        "title": "Bach, J.S. violin concerto in E major BWV 1042",
        "length": 869
    },
    {
        "_id": "57d4ab833d83579e1a728e93",
        "service": "YouTubeVideo",
        "identifier": "wni1GVRlMtc",
        "title": "Monteverdi - Orfeo - Rosa del ciel",
        "length": 306
    },
    {
        "_id": "57d4ab8d3d83579e1a728e95",
        "service": "YouTubeVideo",
        "identifier": "Lq7yGlT6_kA",
        "title": "Erik Satie: Gnossienne  No. 4, 5",
        "length": 364
    },
    {
        "_id": "57d4ab933d83579e1a728e96",
        "service": "YouTubeVideo",
        "identifier": "HmkVBf01XhQ",
        "title": "Mozart - Piano Sonata No. 16 in C, K. 545 [complete] (Facile)",
        "length": 831
    },
    {
        "_id": "57d4ab983d83579e1a728e97",
        "service": "YouTubeVideo",
        "identifier": "sc1IkYwKCtM",
        "title": "Jon Hopkins - Abandon Window - Immunity album version",
        "length": 298
    },
    {
        "_id": "57d4ab9d3d83579e1a728e98",
        "service": "YouTubeVideo",
        "identifier": "vTqbTP5qy7k",
        "title": "Gustav Mahler - \"Ich bin der Welt abhanden gekommen\" (Rückert) - Fischer-Dieskau",
        "length": 419
    },
    {
        "_id": "57d4aba83d83579e1a728e9a",
        "service": "YouTubeVideo",
        "identifier": "0IsQ29EL6tA",
        "title": "Gershwin - Rhapsody in Blue (Original Jazz Band Version)",
        "length": 1012
    },
    {
        "_id": "57d4abad3d83579e1a728e9b",
        "service": "YouTubeVideo",
        "identifier": "baZGdj0xLYg",
        "title": "Arthur Rubinstein - Chopin Impromptu No. 1 in A flat, Op. 29",
        "length": 258
    },
    {
        "_id": "57d4abb33d83579e1a728e9c",
        "service": "YouTubeVideo",
        "identifier": "l2OQbA3r78M",
        "title": "György Ligeti - Lontano",
        "length": 611
    },
    {
        "_id": "57d4abbd3d83579e1a728e9e",
        "service": "YouTubeVideo",
        "identifier": "KRA5pm76XgE",
        "title": "Wolfgang Amadeus Mozart - Piano Concerto No. 22 in E flat major, K. 482 3rd Movement",
        "length": 673
    },
    {
        "_id": "57d4abc83d83579e1a728ea0",
        "service": "YouTubeVideo",
        "identifier": "PG_zvtibU2Q",
        "title": "J.C. Bach / Henri Casadesus Viola Concerto in C minor",
        "length": 839
    },
    {
        "_id": "57d4abcd3d83579e1a728ea1",
        "service": "YouTubeVideo",
        "identifier": "CuEcleIFPlw",
        "title": "Delibes - Lakmé - Viens, Mallika, les lianes en fleurs... Sous le dôme épais (The Flower Duet)",
        "length": 316
    },
    {
        "_id": "57d4abd33d83579e1a728ea2",
        "service": "YouTubeVideo",
        "identifier": "q-0Qo6aKYvY",
        "title": "Phamie Gow - War Song",
        "length": 199
    },
    {
        "_id": "57d4abd83d83579e1a728ea3",
        "service": "YouTubeVideo",
        "identifier": "CodvdRTX8zo",
        "title": "MOZART \"Der Hölle Rache kocht...\" (Patricia Petibon)",
        "length": 187
    },
    {
        "_id": "57d4abdd3d83579e1a728ea4",
        "service": "YouTubeVideo",
        "identifier": "b-qip4uTTAg",
        "title": "Rachmaninoff: Prelude Op.3 No.2 in C-sharp minor",
        "length": 292
    },
    {
        "_id": "57d4abe23d83579e1a728ea5",
        "service": "YouTubeVideo",
        "identifier": "XITlmDJ9-Hk",
        "title": "Arcadelt   Il bianco e dolce cigno   The King's Singers     YouTube",
        "length": 130
    },
    {
        "_id": "57d4abed3d83579e1a728ea7",
        "service": "YouTubeVideo",
        "identifier": "ImdCINt8VHw",
        "title": "Angels and Demons (2009) - Hans Zimmer - 503",
        "length": 258
    },
    {
        "_id": "57d4abfd3d83579e1a728eaa",
        "service": "YouTubeVideo",
        "identifier": "VXeT2HWpwc4",
        "title": "William Byrd: Mass for 4 Voices, The King's Singers",
        "length": 1398
    },
    {
        "_id": "57d4ac023d83579e1a728eab",
        "service": "YouTubeVideo",
        "identifier": "49oiE8Tj1UU",
        "title": "Wolfgang Amadeus Mozart - Piano Sonata No. 9 in D, K. 311 [Complete] (Piano Solo)",
        "length": 897
    },
    {
        "_id": "57d4ac073d83579e1a728eac",
        "service": "YouTubeVideo",
        "identifier": "ENETOpNpIiI",
        "title": "Johann Strauss II - An der schönen, blauen Donau - Walzer, Op. 314",
        "length": 580
    },
    {
        "_id": "57d4ac123d83579e1a728eae",
        "service": "YouTubeVideo",
        "identifier": "iOD9mj0_O54",
        "title": "Antonio Salieri imperial fanfare",
        "length": 76
    },
    {
        "_id": "57d4ac173d83579e1a728eaf",
        "service": "YouTubeVideo",
        "identifier": "Pazzm_f8rJ8",
        "title": "Arvo Pärt - Nunc dimittis",
        "length": 366
    },
    {
        "_id": "57d4ac1d3d83579e1a728eb0",
        "service": "YouTubeVideo",
        "identifier": "k6ZQVUesZE0",
        "title": "George Gershwin —\"Lullaby For Strings\"",
        "length": 625
    },
    {
        "_id": "57d4ac223d83579e1a728eb1",
        "service": "YouTubeVideo",
        "identifier": "-ipb9xbXSAY",
        "title": "Il Barbiere di Siviglia: \"Largo al factotum\" (Peter Mattei)",
        "length": 265
    },
    {
        "_id": "57d4ac2d3d83579e1a728eb3",
        "service": "YouTubeVideo",
        "identifier": "savmzf7AssE",
        "title": "G F Handel - Rinaldo \"Cara sposa\" Andreas Scholl",
        "length": 558
    },
    {
        "_id": "57d4ac323d83579e1a728eb4",
        "service": "YouTubeVideo",
        "identifier": "5Tv3hrZmcEk",
        "title": "Nixon In China (Opera): Act I Scene 1 - News",
        "length": 333
    },
    {
        "_id": "57d4ac373d83579e1a728eb5",
        "service": "YouTubeVideo",
        "identifier": "jSQqbJPoSbw",
        "title": "Lucia Popp - Ruhe Sanft, Mein Holdes Leben (Mozart, Zaide)",
        "length": 383
    },
    {
        "_id": "57d4ac473d83579e1a728eb8",
        "service": "YouTubeVideo",
        "identifier": "ehm_kDU563Q",
        "title": "Chopin: Polonaise in f sharp minor Op. 44 (Pöntinen)",
        "length": 639
    },
    {
        "_id": "57d4ac4c3d83579e1a728eb9",
        "service": "YouTubeVideo",
        "identifier": "JZAs9LjJAHU",
        "title": "Carlo Gesualdo da Venosa - Tristis est anima mea",
        "length": 284
    },
    {
        "_id": "57d4ac523d83579e1a728eba",
        "service": "YouTubeVideo",
        "identifier": "p96-NmrewXQ",
        "title": "Dionysus - Jocelyn Pook",
        "length": 297
    },
    {
        "_id": "57d4ac573d83579e1a728ebb",
        "service": "YouTubeVideo",
        "identifier": "4XUOdHd3FqM",
        "title": "Greg Haines - The Spin",
        "length": 420
    },
    {
        "_id": "57d4ac623d83579e1a728ebd",
        "service": "YouTubeVideo",
        "identifier": "tx6oawcsIkI",
        "title": "Arturo Michelangeli - Chopin Fantasie in F minor, Op. 49",
        "length": 814
    },
    {
        "_id": "57d4ac673d83579e1a728ebe",
        "service": "YouTubeVideo",
        "identifier": "5PC0FrLlO5E",
        "title": "Ivo Pogorelich - Bach - English Suite No. 2 in A minor, BWV 807",
        "length": 1453
    },
    {
        "_id": "57d4ac723d83579e1a728ec0",
        "service": "YouTubeVideo",
        "identifier": "un_HiZr9Dk0",
        "title": "Keith Kenniff - Branch",
        "length": 126
    },
    {
        "_id": "57d4ac7c3d83579e1a728ec2",
        "service": "YouTubeVideo",
        "identifier": "ewNw78TpRPk",
        "title": "Nina Simone -  I Loves You Porgy Live 9/11/1960",
        "length": 233
    },
    {
        "_id": "57d4ac823d83579e1a728ec3",
        "service": "YouTubeVideo",
        "identifier": "hbnunexhlXM",
        "title": "F. Chopin : Polonaise op. 40 no. 1 in A major \"Military\" (Pollini)",
        "length": 329
    },
    {
        "_id": "57d4ac873d83579e1a728ec4",
        "service": "YouTubeVideo",
        "identifier": "bDQ9a768buM",
        "title": "Heinali - Sway, Sway",
        "length": 294
    },
    {
        "_id": "57d4ac8c3d83579e1a728ec5",
        "service": "YouTubeVideo",
        "identifier": "xDTgj_69JKA",
        "title": "Scriabin: Sonata no. 5, Op 53 (Richter) HQ version",
        "length": 654
    },
    {
        "_id": "57d4ac913d83579e1a728ec6",
        "service": "YouTubeVideo",
        "identifier": "ZRY7zrMGCi8",
        "title": "BWV 538 - Toccata & Fugue in D Minor \"Dorian\" (Scrolling)",
        "length": 813
    },
    {
        "_id": "57d4ac9c3d83579e1a728ec8",
        "service": "YouTubeVideo",
        "identifier": "O0_gw2Lillg",
        "title": "Zoltán Kodály, Sonata in B minor for solo cello, Op.8, mvt. III, performed by Sebastian Bäverstam",
        "length": 548
    },
    {
        "_id": "57d4aca13d83579e1a728ec9",
        "service": "YouTubeVideo",
        "identifier": "GkWjO8ZJcpc",
        "title": "Bach: Air, Orchestral Suites No. 3 in D major, BWV 1068",
        "length": 367
    },
    {
        "_id": "57d4aca63d83579e1a728eca",
        "service": "YouTubeVideo",
        "identifier": "k6BcY90YshQ",
        "title": "Pietro Mascagni - Cavalleria Rusticana (Intermezzo Sinfonico)",
        "length": 206
    },
    {
        "_id": "57d4acac3d83579e1a728ecb",
        "service": "YouTubeVideo",
        "identifier": "3_MRe3JwFc8",
        "title": "Aphex Twin • ‘aisatsana [102]’",
        "length": 322
    },
    {
        "_id": "57d4acb13d83579e1a728ecc",
        "service": "YouTubeVideo",
        "identifier": "DYyf7xH8w1Q",
        "title": "Hellsing Der Freischütz Original Version full with lyrics",
        "length": 405
    },
    {
        "_id": "57d4acbc3d83579e1a728ece",
        "service": "YouTubeVideo",
        "identifier": "sp2oxWdRMuk",
        "title": "Arvo Pärt,  Cantus in memoriam Benjamin Britten",
        "length": 466
    },
    {
        "_id": "57d4acc13d83579e1a728ecf",
        "service": "YouTubeVideo",
        "identifier": "MIDuZq7RVAM",
        "title": "Philip Glass - Einstein On The Beach - 01 Knee Play 1",
        "length": 233
    },
    {
        "_id": "57d4acc63d83579e1a728ed0",
        "service": "YouTubeVideo",
        "identifier": "I0dYoifSqhQ",
        "title": "Mozart - Piano Sonata No. 11 in A major, K. 331 - III. Rondò alla Turca",
        "length": 229
    },
    {
        "_id": "57d4accc3d83579e1a728ed1",
        "service": "YouTubeVideo",
        "identifier": "UoZsMA9lsc0",
        "title": "BEETHOVEN: Piano Sonata No.14 in C sharp minor, op.27 no.2 \"Moonlight\" - Valentina Lisitsa",
        "length": 321
    },
    {
        "_id": "57d4acd13d83579e1a728ed2",
        "service": "YouTubeVideo",
        "identifier": "Wk0oZ9JdTe0",
        "title": "Haydn, Joseph 4th violin concerto in G-dur",
        "length": 1030
    },
    {
        "_id": "57d4acd63d83579e1a728ed3",
        "service": "YouTubeVideo",
        "identifier": "3T_qLVcikjQ",
        "title": "Arthur Rubinstein - Chopin Mazurka, Op. 67 No. 2",
        "length": 123
    },
    {
        "_id": "57d4acdb3d83579e1a728ed4",
        "service": "YouTubeVideo",
        "identifier": "_hUJKqHTOEI",
        "title": "Gabriel Fauré: Élégie Op. 24 (Sheet Music for Cello and Piano)",
        "length": 403
    },
    {
        "_id": "57d4ace13d83579e1a728ed5",
        "service": "YouTubeVideo",
        "identifier": "TRCk49vcjjY",
        "title": "Debussy: Beau Soir (Joshua Bell)",
        "length": 154
    },
    {
        "_id": "57d4ace63d83579e1a728ed6",
        "service": "YouTubeVideo",
        "identifier": "Q49yNiQwIso",
        "title": "Joep Beving - The light she brings",
        "length": 168
    },
    {
        "_id": "57d4acf13d83579e1a728ed8",
        "service": "YouTubeVideo",
        "identifier": "BWINpXNd5KE",
        "title": "A. Scriabin : The Poem of Ecstasy - Le Poème de l'Extase op. 54 (Boulez)",
        "length": 1339
    },
    {
        "_id": "57d4acf63d83579e1a728ed9",
        "service": "YouTubeVideo",
        "identifier": "cJhIX5M8lyI",
        "title": "Cello Concerto in B flat Major, G.482 - I. Allegro moderato",
        "length": 526
    },
    {
        "_id": "57d4acfb3d83579e1a728eda",
        "service": "YouTubeVideo",
        "identifier": "sy5hvm7h5wk",
        "title": "Mozart: Sinfonia concertante, K 364 - 1. Allegro maestoso  @ Zagreb Int. Chamber Music Festival",
        "length": 807
    },
    {
        "_id": "57d4ad0b3d83579e1a728edd",
        "service": "YouTubeVideo",
        "identifier": "ePqqoag8s1E",
        "title": "William Byrd \"Agnus Dei - Mass for five voices\"",
        "length": 212
    },
    {
        "_id": "57d4ad163d83579e1a728edf",
        "service": "YouTubeVideo",
        "identifier": "6rnTaAYYK78",
        "title": "Mozart -  Die Zauberflöte - The Magic Flute - The Queen of the Night - Diana Damrau",
        "length": 181
    },
    {
        "_id": "57d4ad1b3d83579e1a728ee0",
        "service": "YouTubeVideo",
        "identifier": "6dVPu71D8VI",
        "title": "Carlo Gesualdo - Sesto libro di madrigali: XVII. Moro, lasso, al mio duolo",
        "length": 211
    },
    {
        "_id": "57d4ad253d83579e1a728ee2",
        "service": "YouTubeVideo",
        "identifier": "UQn6NG9CTn4",
        "title": "Stravinsky: Violin concerto in D - Perlman, Ozawa: BSO.",
        "length": 1308
    },
    {
        "_id": "57d4ad2b3d83579e1a728ee3",
        "service": "YouTubeVideo",
        "identifier": "zBl4kazdK4A",
        "title": "Cruda Amarilli - Claudio Monteverdi",
        "length": 172
    },
    {
        "_id": "57d4ad303d83579e1a728ee4",
        "service": "YouTubeVideo",
        "identifier": "BqoMX2BLMcM",
        "title": "Arthur Rubinstein - Chopin Impromptu No. 3 in G flat, Op. 51",
        "length": 293
    },
    {
        "_id": "57d4ad353d83579e1a728ee5",
        "service": "YouTubeVideo",
        "identifier": "la81066xEUo",
        "title": "Johann Sebastian Bach - Air (From The Orchestral Suite Nº3)",
        "length": 330
    },
    {
        "_id": "57d4ad3b3d83579e1a728ee6",
        "service": "YouTubeVideo",
        "identifier": "oAOWktsnZ0I",
        "title": "27. Prelude In C (from Book 1 of The Well-Tempered Clavier, Bwv 846)",
        "length": 100
    },
    {
        "_id": "57d4ad453d83579e1a728ee8",
        "service": "YouTubeVideo",
        "identifier": "iy523_JQiso",
        "title": "Salieri: Requiem in C minor - Introitus & Kyrie (1.)",
        "length": 394
    },
    {
        "_id": "57d4ad4b3d83579e1a728ee9",
        "service": "YouTubeVideo",
        "identifier": "JJ-RkjbXDlY",
        "title": "Clara Schumann Piano trio in G minor, Op. 17 - Andante",
        "length": 422
    },
    {
        "_id": "57d4ad553d83579e1a728eeb",
        "service": "YouTubeVideo",
        "identifier": "Ei3a79rur00",
        "title": "CHOPIN - WALTZ No. 14 in e minor Op. posth.",
        "length": 295
    },
    {
        "_id": "57d4ad5b3d83579e1a728eec",
        "service": "YouTubeVideo",
        "identifier": "3w0lqrGDvEk",
        "title": "J.S. Bach - Cantata BWV 26 Ach wie flüchtig, ach wie nichtig | 1 Chorus (J. S. Bach Foundation)",
        "length": 157
    },
    {
        "_id": "57d4ad603d83579e1a728eed",
        "service": "YouTubeVideo",
        "identifier": "uF5azK7whIU",
        "title": "D. Scarlatti: Salve Regina in A minor",
        "length": 481
    },
    {
        "_id": "57d4ad653d83579e1a728eee",
        "service": "YouTubeVideo",
        "identifier": "pKQPpwEnr6o",
        "title": "It Ain't Necessarily So",
        "length": 253
    },
    {
        "_id": "57d4ad753d83579e1a728ef1",
        "service": "YouTubeVideo",
        "identifier": "Ok9tofNmqNY",
        "title": "Schubert - Piano Sonata in B Flat Major, D. 960 First Movement (Molto moderato) - Alfred Brendel",
        "length": 901
    },
    {
        "_id": "57d4ad803d83579e1a728ef3",
        "service": "YouTubeVideo",
        "identifier": "GZ7cGnucGNU",
        "title": "XI. Handel  My heart is inditing  - The Sixteen",
        "length": 659
    },
    {
        "_id": "57d4ad853d83579e1a728ef4",
        "service": "YouTubeVideo",
        "identifier": "RF5d-A1Ks18",
        "title": "Carl Orff - Carmina Burana - 14. In Taberna Quando Sumus",
        "length": 182
    },
    {
        "_id": "57d4cd523d83579e1a728ef9",
        "service": "YouTubeVideo",
        "identifier": "pPLXNmKvLBQ",
        "title": "Grieg: Peer Gynt / Järvi · Berliner Philharmoniker",
        "length": 154
    },
    {
        "_id": "57d4ce7b3d83579e1a728efa",
        "service": "YouTubeVideo",
        "identifier": "yI3B10b0CNc",
        "title": "Johannes Ockeghem, Missa prolationum, I.Kyrie",
        "length": 310
    },
    {
        "_id": "57d75d20c093cde216a3118e",
        "service": "YouTubeVideo",
        "identifier": "AB4m885sTeE",
        "title": "Aase's Death (Edward Grieg)",
        "length": 308,
        "requestee": "78242043209461760"
    },
    {
        "_id": "57db5e6c695998dc7de512ec",
        "service": "YouTubeVideo",
        "identifier": "rDzXCttFTWs",
        "title": "Chopin Fantasie Impromptu Opus 66 in C sharp minor by Tzvi Erez, HQ",
        "length": 311,
        "requestee": "78242043209461760"
    },
    {
        "_id": "57dcec12080dbb3220334683",
        "service": "YouTubeVideo",
        "identifier": "ptLvid_YfBg",
        "title": "Liebestraum No. 3 // LISZT",
        "length": 287,
        "requestee": "191357986814427137"
    },
    {
        "_id": "57dcec93080dbb3220334684",
        "service": "YouTubeVideo",
        "identifier": "Mo98dWu9BGQ",
        "title": "Pollini plays Chopin Sonata No.2 in B flat Minor, Op.35 - 2. Scherzo",
        "length": 376,
        "requestee": "162646081379893248"
    },
    {
        "_id": "57dcec97080dbb3220334685",
        "service": "YouTubeVideo",
        "identifier": "y0mAbw-niI8",
        "title": "Pollini plays Chopin Sonata No.2 in B flat Minor, Op.35 - 3. Marche funèbre",
        "length": 505,
        "requestee": "162646081379893248"
    },
    {
        "_id": "57dcecd1080dbb3220334686",
        "service": "YouTubeVideo",
        "identifier": "42NSIDFakf8",
        "title": "Pollini plays Chopin Sonata in B minor, Op.58 - 4. Finale. Presto, non tanto",
        "length": 295,
        "requestee": "162646081379893248"
    },
    {
        "_id": "57ded811cac3ea773b7cfb36",
        "service": "YouTubeVideo",
        "identifier": "s5pFx7K8zLs",
        "title": "Chopin Prelude in C Minor, Op. 28, No. 20",
        "length": 143,
        "requestee": "191357986814427137"
    },
    {
        "_id": "57ded895cac3ea773b7cfb37",
        "service": "YouTubeVideo",
        "identifier": "D_bad8Alq-w",
        "title": "【Intense Fast Classical Piano Songs 15】Chopin:Etude Op.25-11 \"Winter Wind\"",
        "length": 181,
        "requestee": "191357986814427137"
    },
    {
        "_id": "57ded9204268c74477570fe8",
        "service": "YouTubeVideo",
        "identifier": "qnkvhSlUU2o",
        "title": "Antonín Dvorák New World Symphony No.9 1st movement.wmv",
        "length": 758,
        "requestee": "142740576113000448"
    },
    {
        "_id": "57ded96bcac3ea773b7cfb38",
        "service": "YouTubeVideo",
        "identifier": "DjyBN52kNBg",
        "title": "A. Dvořák - Symphony No. 9 \"From the New World\" - 2nd movement",
        "length": 717,
        "requestee": "191357986814427137"
    },
    {
        "_id": "57ded9d14268c74477570fe9",
        "service": "YouTubeVideo",
        "identifier": "lGUH9i_8MFo",
        "title": "A. Dvořák - Symphony No. 9 \"From the New World\" - 3rd movement",
        "length": 473,
        "requestee": "142740576113000448"
    },
    {
        "_id": "57deda29cac3ea773b7cfb39",
        "service": "YouTubeVideo",
        "identifier": "p9OBf8f55tU",
        "title": "New World Symphony - 4th Movement",
        "length": 691,
        "requestee": "191357986814427137"
    },
    {
        "_id": "57ef1ace1595e7244e6d1071",
        "service": "YouTubeVideo",
        "identifier": "X26sBc7HLxM",
        "title": "Forest Elf Music - Night Elf Glade",
        "url": "https://www.youtube.com/watch?v=X26sBc7HLxM",
        "length": 232,
        "requestee": "181003013727584256"
    },
    {
        "_id": "57ef1b011595e7244e6d1072",
        "service": "YouTubeVideo",
        "identifier": "e7MjcUw0Co0",
        "title": "Beethoven Symphony No. 5 - I. Allegro con brio",
        "url": "https://www.youtube.com/watch?v=e7MjcUw0Co0",
        "length": 446,
        "requestee": "161576558962802689"
    },
    {
        "_id": "57ef1ba21595e7244e6d1073",
        "service": "YouTubeVideo",
        "identifier": "y1_9vEnARNg",
        "title": "3. 'Raindrop' Prelude No. 15 In D Flat Major - Chopin (GCSE Music Edexcel)",
        "url": "https://www.youtube.com/watch?v=y1_9vEnARNg",
        "length": 350,
        "requestee": "106819260357042176"
    },
    {
        "_id": "57ef1c901595e7244e6d1074",
        "service": "YouTubeVideo",
        "identifier": "x6ucKHbYLMc",
        "title": "Nikolai Lugansky Rachmaninov Moment Musical Op. 16 No. 4 Moment musicaux",
        "url": "https://youtu.be/x6ucKHbYLMc",
        "length": 173,
        "requestee": "162646081379893248"
    },
    {
        "_id": "57ef1d081595e7244e6d1075",
        "service": "YouTubeVideo",
        "identifier": "KESTJm1g_N0",
        "title": "Tzvi Erez plays Chopin's Minute Waltz",
        "url": "https://www.youtube.com/watch?v=KESTJm1g_N0",
        "length": 115,
        "requestee": "192458513509908481"
    },
    {
        "_id": "57f1860d70da9a5e07885072",
        "service": "YouTubeVideo",
        "identifier": "ddbxFi3-UO4",
        "title": "Bach, \"Little\" Fugue in G minor, Organ",
        "url": "https://www.youtube.com/watch?v=ddbxFi3-UO4",
        "length": 226,
        "requestee": "207468145147904001"
    },
    {
        "_id": "57f6648f215f8b78402daf6b",
        "service": "YouTubeVideo",
        "identifier": "QIdlSFs_aAU",
        "title": "Suite in E Minor, HWV 438: III. Jigg",
        "url": "https://www.youtube.com/watch?v=QIdlSFs_aAU",
        "length": 100,
        "requestee": "102919017529905152"
    },
    {
        "_id": "57f68185215f8b78402daf6c",
        "service": "YouTubeVideo",
        "identifier": "SlZBQk5ePkE",
        "title": "George Frideric Handel, Concerto Grosso in C minor, Op. 6, No. 8, HWV 326, VI. Allegro",
        "url": "https://www.youtube.com/watch?v=SlZBQk5ePkE",
        "length": 86,
        "requestee": "102919017529905152"
    },
    {
        "_id": "57f7d9ce215f8b78402daf78",
        "service": "YouTubeVideo",
        "identifier": "MS6hImoFBcE",
        "title": "Beethoven Piano Sonata no. 26 E flat-major (Les Adieux) - Movement 3 [played by Animenz]",
        "url": "https://www.youtube.com/watch?v=MS6hImoFBcE",
        "length": 341,
        "requestee": "197058072999493633"
    },
    {
        "_id": "57fece92d61990aa57ee5555",
        "service": "YouTubeVideo",
        "identifier": "Tn4lk8fRskA",
        "title": "Beethoven Symphony No. 9 - Mvt. 2 - Barenboim/West-Eastern Divan Orchestra",
        "url": "https://www.youtube.com/watch?v=Tn4lk8fRskA",
        "length": 721,
        "requestee": "78242043209461760"
    },
    {
        "_id": "581eb992fc9708320f36cd3a",
        "service": "YouTubeVideo",
        "identifier": "bxePLI40Oek",
        "title": "Britten: Young Person's Guide To The Orchestra",
        "url": "https://www.youtube.com/watch?v=bxePLI40Oek",
        "length": 998,
        "requestee": "193215003094941696"
    },
    {
        "_id": "582b4916ca6dc7b009f50d42",
        "service": "YouTubeVideo",
        "identifier": "T9u7_WAkAPw",
        "title": "HONEGGER - PACIFIC 231(MOVTO SINFÓNICO Nº 1) - BERNSTEIN /NVA YORK",
        "url": "https://www.youtube.com/watch?v=T9u7_WAkAPw",
        "length": 374,
        "requestee": "78242043209461760"
    },
    {
        "_id": "587b2b5ab8b2360e863062df",
        "service": "SoundCloudTrack",
        "identifier": "291074768",
        "title": "Shostakovich String Quartet No. 8 Movements 2-3",
        "url": "https://soundcloud.com/spuffy-gott/shostakovich-string-quartet-no-8-movements-2-4",
        "length": 1051.212,
        "requestee": "183338801005854720"
    },
    {
        "_id": "587b2c04b8b2360e863062e0",
        "service": "YouTubeVideo",
        "identifier": "GKkeDqJBlK8",
        "title": "Maurice Ravel - Pavane for Dead Princess",
        "url": "https://www.youtube.com/watch?v=GKkeDqJBlK8",
        "length": 407,
        "requestee": "193245599384993793"
    },
    {
        "_id": "587b2d9b4727eace5745d98c",
        "service": "YouTubeVideo",
        "identifier": "J-qoaioG2UA",
        "title": "Richard Wagner - \"Tristan und Isolde\", Prelude",
        "url": "https://www.youtube.com/watch?v=J-qoaioG2UA",
        "length": 659,
        "requestee": "78242043209461760"
    },
    {
        "_id": "587b336bb8b2360e863062e1",
        "service": "YouTubeVideo",
        "identifier": "xTZgMQ7TVes",
        "title": "Gluck - Orfeo ed Euridice - Dance of the Blessed Spirits",
        "url": "https://www.youtube.com/watch?v=xTZgMQ7TVes",
        "length": 444,
        "requestee": "127405523598311424"
    },
    {
        "_id": "587b3592b8b2360e863062e2",
        "service": "YouTubeVideo",
        "identifier": "OQ6slfP6B8Q",
        "title": "Princess Mononoke - Ashitaka and San",
        "url": "https://www.youtube.com/watch?v=OQ6slfP6B8Q",
        "length": 266,
        "requestee": "195710687081791498"
    },
    {
        "_id": "587b381ab8b2360e863062e3",
        "service": "YouTubeVideo",
        "identifier": "wwUkuMf-h7U",
        "title": "Speaking Unto Nations - The King's Speech Soundtrack",
        "url": "https://www.youtube.com/watch?v=wwUkuMf-h7U",
        "length": 306,
        "requestee": "161576558962802689"
    },
    {
        "_id": "587b38c8b8b2360e863062e4",
        "service": "YouTubeVideo",
        "identifier": "eQSNVBLTXYY",
        "title": "Luciano Pavarotti: 'O Sole Mio'",
        "url": "https://www.youtube.com/watch?v=eQSNVBLTXYY",
        "length": 167,
        "requestee": "209533350606667777"
    },
    {
        "_id": "587b3a6fb8b2360e863062e5",
        "service": "YouTubeVideo",
        "identifier": "lSYAUK6hfd4",
        "title": "Fabrizio Paterlini - Soffia la notte",
        "url": "https://www.youtube.com/watch?v=lSYAUK6hfd4",
        "length": 207,
        "requestee": "179288983145021440"
    },
    {
        "_id": "58b4ad6b90a333f478f1d7fe",
        "service": "YouTubeVideo",
        "identifier": "sEIroLParZo",
        "title": "Kate Liu – Polonaise-fantasy in A flat major Op. 61 (third stage)",
        "url": "https://www.youtube.com/watch?v=sEIroLParZo",
        "length": 856,
        "requestee": "78242043209461760"
    },
    {
        "_id": "58b4ad9890a333f478f1d7ff",
        "service": "YouTubeVideo",
        "identifier": "ZYdv5jk09XQ",
        "title": "Beethoven - Piano Sonata No. 17, Op. 31/2 \"Tempest\" III. Allegretto (Kempff)",
        "url": "https://www.youtube.com/watch?v=ZYdv5jk09XQ",
        "length": 427,
        "requestee": "78242043209461760"
    },
    {
        "_id": "58b4adac90a333f478f1d800",
        "service": "YouTubeVideo",
        "identifier": "nWFjo4tSmMs",
        "title": "Chopin-Etude no. 12 in C minor, Op. 10 no. 12, \"Revolutionary\"",
        "url": "https://www.youtube.com/watch?v=nWFjo4tSmMs",
        "length": 161,
        "requestee": "78242043209461760"
    },
    {
        "_id": "58b4adcc90a333f478f1d801",
        "service": "YouTubeVideo",
        "identifier": "wKD3IayknEw",
        "title": "Richard Strauss, Vier letzte Lieder, Jessye Norman, Kurt Masur",
        "url": "https://www.youtube.com/watch?v=wKD3IayknEw",
        "length": 1548,
        "requestee": "78242043209461760"
    },
    {
        "_id": "58b4ae3490a333f478f1d803",
        "service": "YouTubeVideo",
        "identifier": "3VOkrddp6M8",
        "title": "Johann Sebastian Bach - Partita No. 3, BWV 1006 | Hilary Hahn",
        "url": "https://www.youtube.com/watch?v=3VOkrddp6M8",
        "length": 1211,
        "requestee": "78242043209461760"
    },
    {
        "_id": "58b4ae7290a333f478f1d804",
        "service": "YouTubeVideo",
        "identifier": "FLZvsCGtu6M",
        "title": "Bach Cello Suite No.2 D minor Prelude Mischa Maisky BWV 1008",
        "url": "https://www.youtube.com/watch?v=FLZvsCGtu6M",
        "length": 264,
        "requestee": "78242043209461760"
    },
    {
        "_id": "58eecd61e533d725e36fa653",
        "service": "YouTubeVideo",
        "identifier": "fsLkbjP3Cuc",
        "title": "Alexis Ffrench - Truth Vibrations",
        "url": "https://www.youtube.com/watch?v=fsLkbjP3Cuc",
        "length": 155,
        "requestee": "179288983145021440"
    },
    {
        "_id": "58eecdc6e533d725e36fa654",
        "service": "YouTubeVideo",
        "identifier": "DHBa2ANs0fo",
        "title": "Agnes Obel - Falling, Catching",
        "url": "https://www.youtube.com/watch?v=DHBa2ANs0fo",
        "length": 94,
        "requestee": "179288983145021440"
    },
    {
        "_id": "58eece54e533d725e36fa655",
        "service": "YouTubeVideo",
        "identifier": "cg_dRAmSzvA",
        "title": "Una mattina - Ludovico Einaudi",
        "url": "https://www.youtube.com/watch?v=cg_dRAmSzvA",
        "length": 203,
        "requestee": "179288983145021440"
    },
    {
        "_id": "58eecf26e533d725e36fa656",
        "service": "YouTubeVideo",
        "identifier": "NSsKJIzwapA",
        "title": "Scriabin Etude Op.2 No.1 (Horowitz)",
        "url": "https://www.youtube.com/watch?v=NSsKJIzwapA",
        "length": 187,
        "requestee": "107223670723731456"
    },
    {
        "_id": "58eed139e533d725e36fa657",
        "service": "YouTubeVideo",
        "identifier": "NK_PrW31Pzc",
        "title": "Sergei Lyapunov - Nocturne Op. 8 (audio + sheet music)",
        "url": "https://www.youtube.com/watch?v=NK_PrW31Pzc",
        "length": 438,
        "requestee": "107223670723731456"
    },
    {
        "_id": "58eed1d9e533d725e36fa658",
        "service": "YouTubeVideo",
        "identifier": "7E-RTI-H2oI",
        "title": "Vivaldi - Concerto for Two Violins in A Minor RV522",
        "url": "https://www.youtube.com/watch?v=7E-RTI-H2oI",
        "length": 576,
        "requestee": "255117664903626762"
    },
    {
        "_id": "58eed29d5043dad9662b45b9",
        "service": "YouTubeVideo",
        "identifier": "NkQWnWbdArc",
        "title": "Galop by Dmitri Shostakovich arr. by Donald Hunsberger",
        "url": "https://www.youtube.com/watch?v=NkQWnWbdArc",
        "length": 129,
        "requestee": "78242043209461760"
    },
    {
        "_id": "58eed619e533d725e36fa659",
        "service": "YouTubeVideo",
        "identifier": "HvKTPDg0IW0",
        "title": "Rachmaninoff - Rhapsody on a Theme of Paganini, Op. 43",
        "url": "https://youtu.be/HvKTPDg0IW0",
        "length": 1419,
        "requestee": "152177634179022848"
    },
    {
        "_id": "58eed796e533d725e36fa65a",
        "service": "YouTubeVideo",
        "identifier": "-7mntyrW3HU",
        "title": "Chopin Nocturne Op.48 No.1 By Arthur Rubinstein (13/154)",
        "url": "https://youtu.be/-7mntyrW3HU",
        "length": 360,
        "requestee": "162646081379893248"
    },
    {
        "_id": "58eed7b9e533d725e36fa65b",
        "service": "YouTubeVideo",
        "identifier": "h5_V-d8HjhU",
        "title": "Chopin Nocturne Op.72 No.1 By Arthur Rubinstein (19/154)",
        "url": "https://www.youtube.com/watch?v=h5_V-d8HjhU",
        "length": 285,
        "requestee": "162646081379893248"
    },
    {
        "_id": "58eed7e3e533d725e36fa65c",
        "service": "YouTubeVideo",
        "identifier": "w2vLEQno9Ks",
        "title": "Pollini plays Chopin Etude Op.10 No.12 'Revolutionary'",
        "url": "https://www.youtube.com/watch?v=w2vLEQno9Ks",
        "length": 169,
        "requestee": "162646081379893248"
    },
    {
        "_id": "58eed831e533d725e36fa65d",
        "service": "YouTubeVideo",
        "identifier": "IiwmOJPGMjs",
        "title": "Arthur Rubinstein - Chopin Sonata No 3 in B Minor, Op 58 (I Allegro Maestoso)",
        "url": "https://youtu.be/IiwmOJPGMjs",
        "length": 541,
        "requestee": "162646081379893248"
    },
    {
        "_id": "58eed844e533d725e36fa65e",
        "service": "YouTubeVideo",
        "identifier": "bVN66tVOyk8",
        "title": "Arthur Rubinstein - Chopin Sonata No 3 in B Minor, Op 58 (II Scherzo)",
        "url": "https://youtu.be/bVN66tVOyk8",
        "length": 157,
        "requestee": "162646081379893248"
    },
    {
        "_id": "58eed8c0e533d725e36fa65f",
        "service": "YouTubeVideo",
        "identifier": "4cy3dmqrn3c",
        "title": "Arthur Rubinstein - Chopin Sonata No 3 in B Minor, Op 58 (III Largo)",
        "url": "https://youtu.be/4cy3dmqrn3c",
        "length": 547,
        "requestee": "162646081379893248"
    },
    {
        "_id": "58eed8e8e533d725e36fa660",
        "service": "YouTubeVideo",
        "identifier": "D2-Mxo_Uli0",
        "title": "Arthur Rubinstein - Chopin Sonata No 3 in B Minor, Op 58 (IV Finale)",
        "url": "https://youtu.be/D2-Mxo_Uli0",
        "length": 312,
        "requestee": "162646081379893248"
    }
]
