[
    {
        "_id": {
            "$oid": "57cdf25c652eda37485bb004"
        },
        "service": "YouTubeVideo",
        "identifier": "wDCXr_-1a8s",
        "title": "The Kilimanjaro Darkjazz Ensemble - Sirocco",
        "length": 336
    },
    {
        "_id": {
            "$oid": "57cdf31ebe1f7b1e558220a1"
        },
        "service": "YouTubeVideo",
        "identifier": "c-cYD-ghZsY",
        "title": "spf5Ã˜ // ï¼¬ï¼¯ï¼¶ï¼¥ ï¼£ï¼²ï¼©ï¼­ï¼¥ //",
        "length": 212
    },
    {
        "_id": {
            "$oid": "57cdf335be1f7b1e558220a2"
        },
        "service": "YouTubeVideo",
        "identifier": "HCdztsrH7yk",
        "title": "spf5Ã˜ - ï¼³ ï¼µ ï¼£ ï¼£ ï¼µ ï¼¢ ï¼µ ï¼³ ã‚µã‚­ãƒ¥ãƒã‚¹",
        "length": 226
    },
    {
        "_id": {
            "$oid": "57cdf385be1f7b1e558220a3"
        },
        "service": "YouTubeVideo",
        "identifier": "7Sk78uP9m-E",
        "title": "6. I MONSTER - Who Is She?",
        "length": 211
    },
    {
        "_id": {
            "$oid": "57cdf503be1f7b1e558220a5"
        },
        "service": "YouTubeVideo",
        "identifier": "eO-eAldJmA8",
        "title": "Giles Corey - No one is ever going to want me",
        "length": 495
    },
    {
        "_id": {
            "$oid": "57cdf6a0be1f7b1e558220a9"
        },
        "service": "YouTubeVideo",
        "identifier": "mzDvpT-MjYs",
        "title": "Throbbing Gristle - Hamburger Lady",
        "length": 260
    },
    {
        "_id": {
            "$oid": "57ceb9ccfcf88764286fad51"
        },
        "service": "YouTubeVideo",
        "identifier": "q6-ZGAGcJrk",
        "title": "Spooky Scary Skeletons (Remix) - Extended Mix",
        "length": 231
    },
    {
        "_id": {
            "$oid": "57d01420afeb0823e7023d6e"
        },
        "service": "YouTubeVideo",
        "identifier": "m9We2XsVZfc",
        "title": "Original GhostBusters Theme Song",
        "length": 244,
        "requestee": "116079569349378049"
    },
    {
        "_id": {
            "$oid": "57d01431afeb0823e7023d6f"
        },
        "service": "YouTubeVideo",
        "identifier": "BrlF46tZiQo",
        "title": "X-Files Theme Song",
        "length": 209,
        "requestee": "191357986814427137"
    },
    {
        "_id": {
            "$oid": "57f18a8c70da9a5e07885073"
        },
        "service": "YouTubeVideo",
        "identifier": "7YvAYIJSSZY",
        "title": "Rockwell - Somebody's Watching Me",
        "url": "https://youtube.com/watch?v=7YvAYIJSSZY",
        "length": 217,
        "requestee": "191357986814427137"
    },
    {
        "_id": {
            "$oid": "57f1ac8470da9a5e07885074"
        },
        "service": "YouTubeVideo",
        "identifier": "3jjLMm7C2EY",
        "title": "Candyman - theme song \"It was always you, Helen\"",
        "url": "https://youtube.com/watch?v=3jjLMm7C2EY",
        "length": 187,
        "requestee": "191357986814427137"
    },
    {
        "_id": {
            "$oid": "57f1bb8370da9a5e07885075"
        },
        "service": "YouTubeVideo",
        "identifier": "G3BG2caIT5k",
        "title": "PSG The Bonus Soundtrack - Zombie (TV Version)",
        "url": "https://www.youtube.com/watch?v=G3BG2caIT5k",
        "length": 100,
        "requestee": "127405523598311424"
    },
    {
        "_id": {
            "$oid": "57f1bbc270da9a5e07885076"
        },
        "service": "YouTubeVideo",
        "identifier": "0ZmVP-rtlSM",
        "title": "UNSOLVED MYSTERIES (ORIGINAL THEME)",
        "url": "https://youtube.com/watch?v=0ZmVP-rtlSM",
        "length": 229,
        "requestee": "191357986814427137"
    },
    {
        "_id": {
            "$oid": "57f1c0f770da9a5e07885085"
        },
        "service": "YouTubeVideo",
        "identifier": "VWEmsUiQELU",
        "title": "Apocalyptica - 'Hall Of The Mountain King'",
        "url": "https://youtube.com/watch?v=VWEmsUiQELU",
        "length": 210,
        "requestee": "191357986814427137"
    },
    {
        "_id": {
            "$oid": "57f1c60d70da9a5e07885098"
        },
        "service": "YouTubeVideo",
        "identifier": "V-mrCVDL9G4",
        "title": "Undertale Song - Bonetrousle Remix - The Living Tombstone",
        "url": "https://youtube.com/watch?v=V-mrCVDL9G4",
        "length": 216,
        "requestee": "158049329150427136"
    },
    {
        "_id": {
            "$oid": "57f1c79970da9a5e07885099"
        },
        "service": "YouTubeVideo",
        "identifier": "IP36lSoQPCs",
        "title": "Children Of Corn Theme",
        "url": "https://youtube.com/watch?v=IP36lSoQPCs",
        "length": 190,
        "requestee": "191357986814427137"
    },
    {
        "_id": {
            "$oid": "57f1c82770da9a5e0788509a"
        },
        "service": "YouTubeVideo",
        "identifier": "irnSaMbsb4w",
        "title": "Deadspace soundtrack 1: Dead Space Theme",
        "url": "https://youtube.com/watch?v=irnSaMbsb4w",
        "length": 215,
        "requestee": "191357986814427137"
    },
    {
        "_id": {
            "$oid": "57f1cb7170da9a5e0788509b"
        },
        "service": "YouTubeVideo",
        "identifier": "m2_cNmg4kjw",
        "title": "Nightmare Before Christmas - This is Halloween with lyrics",
        "url": "https://youtube.com/watch?v=m2_cNmg4kjw",
        "length": 201,
        "requestee": "211832433572708352"
    },
    {
        "_id": {
            "$oid": "57f1cc5c70da9a5e0788509c"
        },
        "service": "YouTubeVideo",
        "identifier": "j4p9WKnDQzQ",
        "title": "Tim Burton's Corpse Bride main song - Remains of the Day",
        "url": "https://www.youtube.com/watch?v=j4p9WKnDQzQ",
        "length": 225,
        "requestee": "78242043209461760"
    },
    {
        "_id": {
            "$oid": "57f1ddff70da9a5e0788509d"
        },
        "service": "YouTubeVideo",
        "identifier": "e6LqDezHLqY",
        "title": "Hotline Miami 2 OST: El Huervo - Ghost",
        "url": "https://www.youtube.com/watch?v=e6LqDezHLqY",
        "length": 219,
        "requestee": "132462353315790848"
    },
    {
        "_id": {
            "$oid": "57f1e279ab8d53e70488b811"
        },
        "service": "YouTubeVideo",
        "identifier": "SOFCQ2bfmHw",
        "title": "Monster Mash (Lyrics)",
        "url": "https://www.youtube.com/watch?v=SOFCQ2bfmHw",
        "length": 194,
        "requestee": "142740576113000448"
    },
    {
        "_id": {
            "$oid": "57f1e280ab8d53e70488b812"
        },
        "service": "YouTubeVideo",
        "identifier": "X6QzbvH-ZNo",
        "title": "The Addams Family Theme song",
        "url": "https://www.youtube.com/watch?v=X6QzbvH-ZNo",
        "length": 88,
        "requestee": "142740576113000448"
    },
    {
        "_id": {
            "$oid": "57f1e286ab8d53e70488b813"
        },
        "service": "YouTubeVideo",
        "identifier": "nRbbfyBCwMY",
        "title": "The Munsters - RARE vocal version of Theme Song!",
        "url": "https://www.youtube.com/watch?v=nRbbfyBCwMY",
        "length": 163,
        "requestee": "142740576113000448"
    },
    {
        "_id": {
            "$oid": "57f1e28dab8d53e70488b814"
        },
        "service": "YouTubeVideo",
        "identifier": "XVSRm80WzZk",
        "title": "THE TWILIGHT ZONE THEME",
        "url": "https://www.youtube.com/watch?v=XVSRm80WzZk",
        "length": 57,
        "requestee": "142740576113000448"
    },
    {
        "_id": {
            "$oid": "57f1e2e9ab8d53e70488b815"
        },
        "service": "YouTubeVideo",
        "identifier": "XJ1BsEOibwQ",
        "title": "Harvest Dance - Mannheim Steamroller",
        "url": "https://www.youtube.com/watch?v=XJ1BsEOibwQ",
        "length": 183,
        "requestee": "142740576113000448"
    },
    {
        "_id": {
            "$oid": "57f1e31eab8d53e70488b816"
        },
        "service": "YouTubeVideo",
        "identifier": "Qp2AcmO6lz8",
        "title": "NIGHT ON BARE MOUNTAIN - MANNHEIM STEAMROLLER",
        "url": "https://www.youtube.com/watch?v=Qp2AcmO6lz8",
        "length": 254,
        "requestee": "142740576113000448"
    },
    {
        "_id": {
            "$oid": "57f1e346ab8d53e70488b817"
        },
        "service": "YouTubeVideo",
        "identifier": "w5s8QRiVlx4",
        "title": "Mannheim Steamroller - Funeral March of the Marionette - Halloween",
        "url": "https://www.youtube.com/watch?v=w5s8QRiVlx4",
        "length": 182,
        "requestee": "142740576113000448"
    },
    {
        "_id": {
            "$oid": "57f1e4b2ab8d53e70488b818"
        },
        "service": "YouTubeVideo",
        "identifier": "BffRHsmWBxI",
        "title": "J. S. Bach - Toccata for Organ in D minor, BWV 565 - 432 Hz.",
        "url": "https://www.youtube.com/watch?v=BffRHsmWBxI",
        "length": 192,
        "requestee": "142740576113000448"
    },
    {
        "_id": {
            "$oid": "57f1e4fdab8d53e70488b819"
        },
        "service": "YouTubeVideo",
        "identifier": "sPTsfcgBGEI",
        "title": "Overture",
        "url": "https://www.youtube.com/watch?v=sPTsfcgBGEI",
        "length": 166,
        "requestee": "142740576113000448"
    },
    {
        "_id": {
            "$oid": "57f1e5e3ab8d53e70488b81a"
        },
        "service": "YouTubeVideo",
        "identifier": "_YU11pqffRw",
        "title": "The Phantom of the Opera",
        "url": "https://www.youtube.com/watch?v=_YU11pqffRw",
        "length": 215,
        "requestee": "142740576113000448"
    },
    {
        "_id": {
            "$oid": "57f1e617ab8d53e70488b81b"
        },
        "service": "YouTubeVideo",
        "identifier": "BI0QNdIi508",
        "title": "Halloween Original Soundtrack (1978) - Halloween Theme (Main Title)",
        "url": "https://www.youtube.com/watch?v=BI0QNdIi508",
        "length": 176,
        "requestee": "142740576113000448"
    },
    {
        "_id": {
            "$oid": "57f1e63bab8d53e70488b81c"
        },
        "service": "YouTubeVideo",
        "identifier": "hYPoDFil1r0",
        "title": "Freddy Krueger Theme Song",
        "url": "https://www.youtube.com/watch?v=hYPoDFil1r0",
        "length": 216,
        "requestee": "142740576113000448"
    },
    {
        "_id": {
            "$oid": "57f1e659ab8d53e70488b81d"
        },
        "service": "YouTubeVideo",
        "identifier": "O5YQmUIIjvs",
        "title": "The Exorcist Theme Song FULL",
        "url": "https://www.youtube.com/watch?v=O5YQmUIIjvs",
        "length": 230,
        "requestee": "142740576113000448"
    },
    {
        "_id": {
            "$oid": "57f1e672ab8d53e70488b81e"
        },
        "service": "YouTubeVideo",
        "identifier": "7Kg5NdwH8zE",
        "title": "The Omen Theme",
        "url": "https://www.youtube.com/watch?v=7Kg5NdwH8zE",
        "length": 160,
        "requestee": "142740576113000448"
    },
    {
        "_id": {
            "$oid": "57f1e73aab8d53e70488b81f"
        },
        "service": "YouTubeVideo",
        "identifier": "ogGArpaxeNY",
        "title": "Laurie's Theme - Halloween II",
        "url": "https://www.youtube.com/watch?v=ogGArpaxeNY",
        "length": 177,
        "requestee": "142740576113000448"
    },
    {
        "_id": {
            "$oid": "57f1e76fab8d53e70488b820"
        },
        "service": "YouTubeVideo",
        "identifier": "pYzvZFc8sms",
        "title": "Halloween - Michael Kills Judith",
        "url": "https://www.youtube.com/watch?v=pYzvZFc8sms",
        "length": 192,
        "requestee": "142740576113000448"
    },
    {
        "_id": {
            "$oid": "57f1ea8aab8d53e70488b826"
        },
        "service": "YouTubeVideo",
        "identifier": "i-_Xx9Dn0aI",
        "title": "A Nightmare on Elm Street (1984) - Theme Song",
        "url": "https://www.youtube.com/watch?v=i-_Xx9Dn0aI",
        "length": 216,
        "requestee": "142740576113000448"
    },
    {
        "_id": {
            "$oid": "57f1eb03ab8d53e70488b827"
        },
        "service": "YouTubeVideo",
        "identifier": "kDKiRco9MRU",
        "title": "Bram Stoker's Dracula - The Beginning",
        "url": "https://www.youtube.com/watch?v=kDKiRco9MRU",
        "length": 402,
        "requestee": "142740576113000448"
    },
    {
        "_id": {
            "$oid": "57f2c86070da9a5e078850a6"
        },
        "service": "YouTubeVideo",
        "identifier": "K2rwxs1gH9w",
        "title": "Andrew Gold - Spooky Scary Skeletons",
        "url": "https://www.youtube.com/watch?v=K2rwxs1gH9w",
        "length": 131,
        "requestee": "158617433312198656"
    },
    {
        "_id": {
            "$oid": "57f2d12370da9a5e078850a9"
        },
        "service": "YouTubeVideo",
        "identifier": "AibtyCAhyQE",
        "title": "Five Nights at Freddy's 3 Song (Feat. EileMonty & Orko) - Die In A Fire (FNAF3)  - Living Tombstone",
        "url": "https://youtube.com/watch?v=AibtyCAhyQE",
        "length": 186,
        "requestee": "127405523598311424"
    },
    {
        "_id": {
            "$oid": "57f2d31c70da9a5e078850aa"
        },
        "service": "YouTubeVideo",
        "identifier": "gk-aCL6eyGc",
        "title": "Five Nights at Freddy's 2 Song - The Living Tombstone (FNAF2)",
        "url": "https://youtube.com/watch?v=gk-aCL6eyGc",
        "length": 181,
        "requestee": "127405523598311424"
    },
    {
        "_id": {
            "$oid": "57f2d3dc70da9a5e078850ac"
        },
        "service": "YouTubeVideo",
        "identifier": "i6OtF7daIPM",
        "title": "28 Weeks Later & 28 Days Later theme song by John Murphy",
        "url": "https://youtu.be/i6OtF7daIPM",
        "length": 386,
        "requestee": "191357986814427137"
    },
    {
        "_id": {
            "$oid": "57f52d28215f8b78402daf5b"
        },
        "service": "YouTubeVideo",
        "identifier": "RZ2oXzrnti4",
        "title": "The Specials - Ghost Town",
        "url": "https://youtu.be/RZ2oXzrnti4",
        "length": 219,
        "requestee": "116079569349378049"
    },
    {
        "_id": {
            "$oid": "57f52ee8215f8b78402daf5c"
        },
        "service": "YouTubeVideo",
        "identifier": "dLrdSC9MVb4",
        "title": "Tally Hall - Turn The Lights Off",
        "url": "https://www.youtube.com/watch?v=dLrdSC9MVb4",
        "length": 178,
        "requestee": "127405523598311424"
    },
    {
        "_id": {
            "$oid": "57f5418f215f8b78402daf65"
        },
        "service": "YouTubeVideo",
        "identifier": "gncJoZqerOw",
        "title": "Werewolves Of London - Warren Zevon ( lyrics )",
        "url": "https://www.youtube.com/watch?v=gncJoZqerOw",
        "length": 209,
        "requestee": "211832433572708352"
    },
    {
        "_id": {
            "$oid": "57f69cae215f8b78402daf6f"
        },
        "service": "YouTubeVideo",
        "identifier": "o251comtNfk",
        "title": "Undertale OST: 039 - Spookwave",
        "url": "https://www.youtube.com/watch?v=o251comtNfk",
        "length": 26,
        "requestee": "107904023901777920"
    },
    {
        "_id": {
            "$oid": "57f6a390215f8b78402daf70"
        },
        "service": "YouTubeVideo",
        "identifier": "9SSUQxGjZZ4",
        "title": "Godsmack - Voodoo",
        "url": "https://www.youtube.com/watch?v=9SSUQxGjZZ4",
        "length": 257,
        "requestee": "211832433572708352"
    },
    {
        "_id": {
            "$oid": "57f6a3fc215f8b78402daf71"
        },
        "service": "YouTubeVideo",
        "identifier": "l8imVKXWd8U",
        "title": "Inquisition Symphony - Apocalyptica",
        "url": "https://www.youtube.com/watch?v=l8imVKXWd8U",
        "length": 303,
        "requestee": "191357986814427137"
    },
    {
        "_id": {
            "$oid": "57f6a704215f8b78402daf72"
        },
        "service": "YouTubeVideo",
        "identifier": "uxVl-XSj6iY",
        "title": "The Living Tombstone - Jumping Devil - Music Video",
        "url": "https://youtube.com/watch?v=uxVl-XSj6iY",
        "length": 211,
        "requestee": "158049329150427136"
    },
    {
        "_id": {
            "$oid": "57f6ad44215f8b78402daf76"
        },
        "service": "YouTubeVideo",
        "identifier": "dW073cZERYI",
        "title": "Gloomy Manor - Luigi's Mansion: Dark Moon",
        "url": "https://www.youtube.com/watch?v=dW073cZERYI",
        "length": 143,
        "requestee": "107904023901777920"
    },
    {
        "_id": {
            "$oid": "57f6fd82215f8b78402daf77"
        },
        "service": "YouTubeVideo",
        "identifier": "Y5UVKmZpqao",
        "title": "Undertale - Your Best Nightmare",
        "url": "https://www.youtube.com/watch?v=Y5UVKmZpqao",
        "length": 241,
        "requestee": "127405523598311424"
    },
    {
        "_id": {
            "$oid": "57fabb9e215f8b78402dafa4"
        },
        "service": "YouTubeVideo",
        "identifier": "-1S4_7QYyl4",
        "title": "HALLO-MASHUP | The name's too long here | Flowey The Flower",
        "url": "https://www.youtube.com/watch?v=-1S4_7QYyl4",
        "length": 317,
        "requestee": "178200934445350912"
    },
    {
        "_id": {
            "$oid": "57fad51f215f8b78402dafa5"
        },
        "service": "YouTubeVideo",
        "identifier": "6Kf7ycHajX4",
        "title": "Super Meat Boy: Betus Blues (Indie Game Music HD)",
        "url": "https://www.youtube.com/watch?v=6Kf7ycHajX4",
        "length": 193,
        "requestee": "127405523598311424"
    },
    {
        "_id": {
            "$oid": "57fef8859a9ca22d6e5bd6c1"
        },
        "service": "YouTubeVideo",
        "identifier": "JshB_KFmKfY",
        "title": "SCARY MONSTERS AND SUPER CREEPS - DAVID BOWIE",
        "url": "https://youtu.be/JshB_KFmKfY",
        "length": 219,
        "requestee": "211832433572708352"
    },
    {
        "_id": {
            "$oid": "57fef9579a9ca22d6e5bd6c3"
        },
        "service": "YouTubeVideo",
        "identifier": "8W8jO4llDyg",
        "title": "World of Goo SoundTrack 12 - Burning Man",
        "url": "https://www.youtube.com/watch?v=8W8jO4llDyg",
        "length": 109,
        "requestee": "127405523598311424"
    },
    {
        "_id": {
            "$oid": "57fef9a39a9ca22d6e5bd6c4"
        },
        "service": "YouTubeVideo",
        "identifier": "srz4wFAzrlQ",
        "title": "Screamin' Jay Hawkins - I Put a Spell on You (Jeremy Sole's Zombie Stomp Remix)",
        "url": "https://youtu.be/srz4wFAzrlQ",
        "length": 192,
        "requestee": "116079569349378049"
    },
    {
        "_id": {
            "$oid": "57fefa2d9a9ca22d6e5bd6c5"
        },
        "service": "YouTubeVideo",
        "identifier": "zkj_ov_0LA4",
        "title": "Tom Waits: Little Drop Of Poison",
        "url": "https://youtu.be/zkj_ov_0LA4",
        "length": 192,
        "requestee": "211832433572708352"
    },
    {
        "_id": {
            "$oid": "57fefa609a9ca22d6e5bd6c7"
        },
        "service": "YouTubeVideo",
        "identifier": "XU_waP_8ais",
        "title": "Little Boots - Ghost",
        "url": "https://youtu.be/XU_waP_8ais",
        "length": 183,
        "requestee": "211832433572708352"
    },
    {
        "_id": {
            "$oid": "57fefa819a9ca22d6e5bd6c8"
        },
        "service": "YouTubeVideo",
        "identifier": "NHRLm3vHhZ0",
        "title": "Echo and the Bunnymen - The Killing Moon (TraducciÃ³n al espaÃ±ol) (Lyrics)",
        "url": "https://youtu.be/NHRLm3vHhZ0",
        "length": 348,
        "requestee": "211832433572708352"
    },
    {
        "_id": {
            "$oid": "57fefadf9a9ca22d6e5bd6ca"
        },
        "service": "YouTubeVideo",
        "identifier": "vZM3PHt0ij4",
        "title": "Trick Or Treat - Angry Birds Seasons Music",
        "url": "https://www.youtube.com/watch?v=vZM3PHt0ij4",
        "length": 97,
        "requestee": "127405523598311424"
    },
    {
        "_id": {
            "$oid": "57fefb519a9ca22d6e5bd6cb"
        },
        "service": "YouTubeVideo",
        "identifier": "eTviNc52igI",
        "title": "The Lost Boys - Soundtrack - People Are Strange - By Echo & The Bunnymen -",
        "url": "https://youtu.be/eTviNc52igI",
        "length": 220,
        "requestee": "211832433572708352"
    },
    {
        "_id": {
            "$oid": "57fefba39a9ca22d6e5bd6cc"
        },
        "service": "YouTubeVideo",
        "identifier": "SO_2GhpvtwU",
        "title": "Creature Feature - Dr. Sawbones",
        "url": "https://youtu.be/SO_2GhpvtwU",
        "length": 215,
        "requestee": "211832433572708352"
    },
    {
        "_id": {
            "$oid": "580061a12d96370dbb85dbc8"
        },
        "service": "YouTubeVideo",
        "identifier": "lysPYm_GkWs",
        "title": "Corpse Party Blood Covered OST PC and PSP   Becoming Turbid",
        "url": "https://youtube.com/watch?v=lysPYm_GkWs",
        "length": 98,
        "requestee": "191357986814427137"
    },
    {
        "_id": {
            "$oid": "580061f22d96370dbb85dbc9"
        },
        "service": "YouTubeVideo",
        "identifier": "U2eTmgpJSrs",
        "title": "Machigerita(ãƒžãƒã‚²ãƒªãƒ¼ã‚¿) - Strange Masquerade Halloween(ã‚¹ãƒˆãƒ¬ãƒ³ã‚¸ãƒžã‚¹ã‚«ãƒ¬ã‚¨ãƒ‰ãƒãƒ­ã‚¦ã‚£ãƒ³)",
        "url": "https://www.youtube.com/watch?v=U2eTmgpJSrs",
        "length": 288,
        "requestee": "158617433312198656"
    },
    {
        "_id": {
            "$oid": "580aee907005ae2fc03e92c5"
        },
        "service": "YouTubeVideo",
        "identifier": "m_YXSinKblA",
        "title": "Battlefield 3 [Soundtrack] - Track 07 - The Death of Vladimir",
        "url": "https://youtu.be/m_YXSinKblA",
        "length": 138,
        "requestee": "153307384687624193"
    },
    {
        "_id": {
            "$oid": "580aef997005ae2fc03e92c7"
        },
        "service": "YouTubeVideo",
        "identifier": "rlBddIR6_7c",
        "title": "Die Sonne Satans - The Venerable",
        "url": "https://youtu.be/rlBddIR6_7c",
        "length": 330,
        "requestee": "153307384687624193"
    },
    {
        "_id": {
            "$oid": "580ede0213b30142a8d41134"
        },
        "service": "SoundCloudTrack",
        "identifier": "167819473",
        "title": "179726 gmtn (witch's slave) - furioso melodia",
        "url": "https://soundcloud.com/jarl-teesalu-thisisthegenesis/179726-gmtn-witchs-slave-furioso-melodia",
        "length": 358.146,
        "requestee": "191357986814427137"
    },
    {
        "_id": {
            "$oid": "580edfb813b30142a8d41135"
        },
        "service": "YouTubeVideo",
        "identifier": "NHywdqH3F6Y",
        "title": "David Bowie- Scary Monsters (And super creeps)",
        "url": "https://youtu.be/NHywdqH3F6Y",
        "length": 313,
        "requestee": "112598672163811328"
    },
    {
        "_id": {
            "$oid": "580ee02813b30142a8d41136"
        },
        "service": "YouTubeVideo",
        "identifier": "l18A5BOTlzE",
        "title": "Five Nights at Freddy's 1 Song - The Living Tombstone",
        "url": "https://www.youtube.com/watch?v=l18A5BOTlzE",
        "length": 178,
        "requestee": "86922140909056000"
    },
    {
        "_id": {
            "$oid": "580ee09413b30142a8d41137"
        },
        "service": "YouTubeVideo",
        "identifier": "yrBEZqJ_9HA",
        "title": "The Chase - Jay Chattaway from Maniac Cop",
        "url": "https://www.youtube.com/watch?v=yrBEZqJ_9HA",
        "length": 225,
        "requestee": "178185812859420673"
    },
    {
        "_id": {
            "$oid": "580ee0e513b30142a8d41138"
        },
        "service": "SoundCloudTrack",
        "identifier": "252097215",
        "title": "CJ From Spook Street",
        "url": "https://soundcloud.com/xarlable/cj-from-spook-street",
        "length": 59.329,
        "requestee": "191578359581376512"
    },
    {
        "_id": {
            "$oid": "580ee11613b30142a8d41139"
        },
        "service": "YouTubeVideo",
        "identifier": "k4GsX0Z8gxE",
        "title": "Ragnarok Online ~ Dancing Christmas in the 13th Month [BGM 85]",
        "url": "https://www.youtube.com/watch?v=k4GsX0Z8gxE",
        "length": 185,
        "requestee": "193245599384993793"
    },
    {
        "_id": {
            "$oid": "580ee19c13b30142a8d4113a"
        },
        "service": "YouTubeVideo",
        "identifier": "sIz2SwzcZkE",
        "title": "Ragnarok Online ~  Christmas in the 13th Month [BGM 84]",
        "url": "https://www.youtube.com/watch?v=sIz2SwzcZkE",
        "length": 137,
        "requestee": "193245599384993793"
    },
    {
        "_id": {
            "$oid": "580ee5a613b30142a8d4113b"
        },
        "service": "YouTubeVideo",
        "identifier": "_hZ5GDYPqjk",
        "title": "Voltaire- Brains lyrics",
        "url": "https://youtu.be/_hZ5GDYPqjk",
        "length": 325,
        "requestee": "153307384687624193"
    },
    {
        "_id": {
            "$oid": "5817f3a947fd287aa739f5a9"
        },
        "service": "YouTubeVideo",
        "identifier": "Da0oRH0Wb0M",
        "title": "Mighty Disco King - Halloween Techno Remix",
        "url": "https://youtu.be/Da0oRH0Wb0M",
        "length": 207,
        "requestee": "141858634660315136"
    },
    {
        "_id": {
            "$oid": "5817f5e947fd287aa739f5aa"
        },
        "service": "YouTubeVideo",
        "identifier": "qztch6_Uhuk",
        "title": "ã€AMVã€‘Soul Eaterã€ŽThis Is Halloweenã€",
        "url": "https://www.youtube.com/watch?v=qztch6_Uhuk",
        "length": 230,
        "requestee": "203550526615322633"
    }
]
